%!PS-Adobe-2.0 EPSF-2.0
%%Title: /home/gijs/.chiplotle/output/20140702_232512.eps
%%Creator: hp2xx 3.4.4 (c) 1991-1994 by H. Werntges, 1999-2003 by M. Kroeker
%%CreationDate: Wed Jul  2 23:25:12 2014
%%Pages: 1
%%BoundingBox: 0 0 2835 1418
%%EndComments

%%BeginProcSet:
/PSSave save def
/PSDict 200 dict def
PSDict begin
/@restore /restore load def
/restore
   {vmstatus pop
    dup @VMused lt {pop @VMused} if
    exch pop exch @restore /@VMused exch def
   } def
/@pri
   {
    ( ) print
    (                                       ) cvs print
   } def
/@start
   {
    vmstatus pop /@VMused exch def pop
   } def
/@end
   {(VM Used: ) print @VMused @pri
    (. Unused: ) print vmstatus @VMused sub @pri pop pop
    (\n) print flush
    end
    PSSave restore
   } def
/bop
   {
    /SaveImage save def
   } def
/eop
   {
    showpage
    SaveImage restore
   } def
/@line
   {
%%    1 setlinejoin      %% now set from LA command
%%    1 setmiterlimit    %% now set from LA command
   } def
/@SetPlot
   {
    2.834646 2.834646 scale
      0.050   0.050 translate
     0.100 setlinewidth
   } def
/C {setrgbcolor} def
/D {lineto} def
/M {moveto} def
/S {stroke} def
/W {setlinewidth} def
/Z {stroke newpath} def
end
%%EndProcSet

%%BeginSetup
/#copies 1 def
%%EndSetup
%%Page: 1 1
%%BeginPageSetup
PSDict begin
@start
@line
@SetPlot

bop
%%EndPageSetup
  0.100 W
 S
  0.00   0.00 M  0.100 W
 S
  0.00   0.00 M 1 setlinecap
 S
  0.00   0.00 M 1 setlinejoin
 S
  0.00   0.00 M  0.000  0.000  0.000 C
 S
  0.00   0.00 M   0.00   0.00 D 250.00 500.00 D S
250.00 500.00 M 250.00 500.00 D 750.00 500.00 D S
750.00 500.00 M 750.00 500.00 D 1000.00   0.00 D S
1000.00   0.00 M 1000.00   0.00 D 500.00 250.00 D S
500.00 250.00 M  1.000  0.000  0.000 C
 S
  0.00   0.00 M   0.00   0.00 D 250.00 500.00 D S
250.00 500.00 M 250.00 500.00 D 750.00 500.00 D S
750.00 500.00 M 750.00 500.00 D 1000.00   0.00 D S
1000.00   0.00 M  0.000  1.000  0.000 C
 S
  0.00   0.00 M   0.00   0.00 D 250.00 500.00 D S
250.00 500.00 M 250.00 500.00 D 750.00 500.00 D S
750.00 500.00 M  0.000  0.000  1.000 C
 S
  0.00   0.00 M   0.00   0.00 D 250.00 500.00 D S
250.00 500.00 M  0.000  0.000  0.000 C
 S
  0.00   0.00 M   0.00   0.00 D 250.00 500.00 D S
250.00 500.00 M 250.00 500.00 D 750.00 500.00 D S
750.00 500.00 M 750.00 500.00 D 1000.00   0.00 D S
1000.00   0.00 M 1000.00   0.00 D 500.00 250.00 D S
500.00 250.00 M  1.000  0.000  0.000 C
 S
  2.50   5.00 M   2.50   5.00 D 255.00 500.00 D S
255.00 500.00 M 255.00 500.00 D 752.50 495.00 D S
752.50 495.00 M 752.50 495.00 D 995.00   2.50 D S
995.00   2.50 M  0.000  1.000  0.000 C
 S
  5.03   9.95 M   5.03   9.95 D 259.98 499.95 D S
259.98 499.95 M 259.98 499.95 D 754.92 490.08 D S
754.92 490.08 M  0.000  0.000  1.000 C
 S
  7.57  14.85 M   7.57  14.85 D 264.92 499.85 D S
264.92 499.85 M  0.000  0.000  0.000 C
 S
  0.00   0.00 M   0.00   0.00 D 250.00 500.00 D S
250.00 500.00 M 250.00 500.00 D 750.00 500.00 D S
750.00 500.00 M 750.00 500.00 D 1000.00   0.00 D S
1000.00   0.00 M 1000.00   0.00 D 500.00 250.00 D S
500.00 250.00 M  1.000  0.000  0.000 C
 S
  5.00  10.00 M   5.00  10.00 D 260.00 500.00 D S
260.00 500.00 M 260.00 500.00 D 755.00 490.00 D S
755.00 490.00 M 755.00 490.00 D 990.00   5.00 D S
990.00   5.00 M  0.000  1.000  0.000 C
 S
 10.10  19.80 M  10.10  19.80 D 269.90 499.80 D S
269.90 499.80 M 269.90 499.80 D 759.70 480.30 D S
759.70 480.30 M  0.000  0.000  1.000 C
 S
 15.30  29.40 M  15.30  29.40 D 279.70 499.41 D S
279.70 499.41 M  0.000  0.000  0.000 C
 S
  0.00   0.00 M   0.00   0.00 D 250.00 500.00 D S
250.00 500.00 M 250.00 500.00 D 750.00 500.00 D S
750.00 500.00 M 750.00 500.00 D 1000.00   0.00 D S
1000.00   0.00 M 1000.00   0.00 D 500.00 250.00 D S
500.00 250.00 M  1.000  0.000  0.000 C
 S
  7.50  15.00 M   7.50  15.00 D 265.00 500.00 D S
265.00 500.00 M 265.00 500.00 D 757.50 485.00 D S
757.50 485.00 M 757.50 485.00 D 985.00   7.50 D S
985.00   7.50 M  0.000  1.000  0.000 C
 S
 15.23  29.55 M  15.23  29.55 D 279.77 499.55 D S
279.78 499.55 M 279.77 499.55 D 764.33 470.68 D S
764.33 470.68 M  0.000  0.000  1.000 C
 S
 23.16  43.65 M  23.16  43.65 D 294.31 498.68 D S
294.31 498.68 M  0.000  0.000  0.000 C
 S
  0.00   0.00 M   0.00   0.00 D 250.00 500.00 D S
250.00 500.00 M 250.00 500.00 D 750.00 500.00 D S
750.00 500.00 M 750.00 500.00 D 1000.00   0.00 D S
1000.00   0.00 M 1000.00   0.00 D 500.00 250.00 D S
500.00 250.00 M  1.000  0.000  0.000 C
 S
 10.00  20.00 M  10.00  20.00 D 270.00 500.00 D S
270.00 500.00 M 270.00 500.00 D 760.00 480.00 D S
760.00 480.00 M 760.00 480.00 D 980.00  10.00 D S
980.00  10.00 M  0.000  1.000  0.000 C
 S
 20.40  39.20 M  20.40  39.20 D 289.60 499.20 D S
289.60 499.20 M 289.60 499.20 D 768.80 461.20 D S
768.80 461.20 M  0.000  0.000  1.000 C
 S
 31.17  57.60 M  31.17  57.60 D 308.77 497.68 D S
308.77 497.68 M  0.000  0.000  0.000 C
 S
  0.00   0.00 M   0.00   0.00 D 250.00 500.00 D S
250.00 500.00 M 250.00 500.00 D 750.00 500.00 D S
750.00 500.00 M 750.00 500.00 D 1000.00   0.00 D S
1000.00   0.00 M 1000.00   0.00 D 500.00 250.00 D S
500.00 250.00 M  1.000  0.000  0.000 C
 S
 12.50  25.00 M  12.50  25.00 D 275.00 500.00 D S
275.00 500.00 M 275.00 500.00 D 762.50 475.00 D S
762.50 475.00 M 762.50 475.00 D 975.00  12.50 D S
975.00  12.50 M  0.000  1.000  0.000 C
 S
 25.63  48.75 M  25.62  48.75 D 299.38 498.75 D S
299.38 498.75 M 299.38 498.75 D 773.12 451.88 D S
773.12 451.88 M  0.000  0.000  1.000 C
 S
 39.31  71.25 M  39.31  71.25 D 323.06 496.41 D S
323.06 496.41 M  0.000  0.000  0.000 C
 S
  0.00   0.00 M   0.00   0.00 D 250.00 500.00 D S
250.00 500.00 M 250.00 500.00 D 750.00 500.00 D S
750.00 500.00 M 750.00 500.00 D 1000.00   0.00 D S
1000.00   0.00 M 1000.00   0.00 D 500.00 250.00 D S
500.00 250.00 M  1.000  0.000  0.000 C
 S
 15.00  30.00 M  15.00  30.00 D 280.00 500.00 D S
280.00 500.00 M 280.00 500.00 D 765.00 470.00 D S
765.00 470.00 M 765.00 470.00 D 970.00  15.00 D S
970.00  15.00 M  0.000  1.000  0.000 C
 S
 30.90  58.20 M  30.90  58.20 D 309.10 498.20 D S
309.10 498.20 M 309.10 498.20 D 777.30 442.70 D S
777.30 442.70 M  0.000  0.000  1.000 C
 S
 47.59  84.60 M  47.59  84.60 D 337.19 494.87 D S
337.19 494.87 M  0.000  0.000  0.000 C
 S
  0.00   0.00 M   0.00   0.00 D 250.00 500.00 D S
250.00 500.00 M 250.00 500.00 D 750.00 500.00 D S
750.00 500.00 M 750.00 500.00 D 1000.00   0.00 D S
1000.00   0.00 M 1000.00   0.00 D 500.00 250.00 D S
500.00 250.00 M  1.000  0.000  0.000 C
 S
 17.50  35.00 M  17.50  35.00 D 285.00 500.00 D S
285.00 500.00 M 285.00 500.00 D 767.50 465.00 D S
767.50 465.00 M 767.50 465.00 D 965.00  17.50 D S
965.00  17.50 M  0.000  1.000  0.000 C
 S
 36.23  67.55 M  36.23  67.55 D 318.77 497.55 D S
318.78 497.55 M 318.77 497.55 D 781.33 433.68 D S
781.33 433.68 M  0.000  0.000  1.000 C
 S
 56.00  97.65 M  56.00  97.65 D 351.15 493.08 D S
351.15 493.08 M  0.000  0.000  0.000 C
 S
  0.00   0.00 M   0.00   0.00 D 250.00 500.00 D S
250.00 500.00 M 250.00 500.00 D 750.00 500.00 D S
750.00 500.00 M 750.00 500.00 D 1000.00   0.00 D S
1000.00   0.00 M 1000.00   0.00 D 500.00 250.00 D S
500.00 250.00 M  1.000  0.000  0.000 C
 S
 20.00  40.00 M  20.00  40.00 D 290.00 500.00 D S
290.00 500.00 M 290.00 500.00 D 770.00 460.00 D S
770.00 460.00 M 770.00 460.00 D 960.00  20.00 D S
960.00  20.00 M  0.000  1.000  0.000 C
 S
 41.60  76.80 M  41.60  76.80 D 328.40 496.80 D S
328.40 496.80 M 328.40 496.80 D 785.20 424.80 D S
785.20 424.80 M  0.000  0.000  1.000 C
 S
 64.54 110.40 M  64.54 110.40 D 364.94 491.04 D S
364.94 491.04 M  0.000  0.000  0.000 C
 S
  0.00   0.00 M   0.00   0.00 D 250.00 500.00 D S
250.00 500.00 M 250.00 500.00 D 750.00 500.00 D S
750.00 500.00 M 750.00 500.00 D 1000.00   0.00 D S
1000.00   0.00 M 1000.00   0.00 D 500.00 250.00 D S
500.00 250.00 M  1.000  0.000  0.000 C
 S
 22.50  45.00 M  22.50  45.00 D 295.00 500.00 D S
295.00 500.00 M 295.00 500.00 D 772.50 455.00 D S
772.50 455.00 M 772.50 455.00 D 955.00  22.50 D S
955.00  22.50 M  0.000  1.000  0.000 C
 S
 47.03  85.95 M  47.03  85.95 D 337.98 495.95 D S
337.98 495.95 M 337.98 495.95 D 788.92 416.08 D S
788.92 416.08 M  0.000  0.000  1.000 C
 S
 73.21 122.85 M  73.21 122.85 D 378.56 488.76 D S
378.56 488.76 M  0.000  0.000  0.000 C
 S
  0.00   0.00 M   0.00   0.00 D 250.00 500.00 D S
250.00 500.00 M 250.00 500.00 D 750.00 500.00 D S
750.00 500.00 M 750.00 500.00 D 1000.00   0.00 D S
1000.00   0.00 M 1000.00   0.00 D 500.00 250.00 D S
500.00 250.00 M  1.000  0.000  0.000 C
 S
 25.00  50.00 M  25.00  50.00 D 300.00 500.00 D S
300.00 500.00 M 300.00 500.00 D 775.00 450.00 D S
775.00 450.00 M 775.00 450.00 D 950.00  25.00 D S
950.00  25.00 M  0.000  1.000  0.000 C
 S
 52.50  95.00 M  52.50  95.00 D 347.50 495.00 D S
347.50 495.00 M 347.50 495.00 D 792.50 407.50 D S
792.50 407.50 M  0.000  0.000  1.000 C
 S
 82.00 135.00 M  82.00 135.00 D 392.00 486.25 D S
392.00 486.25 M  0.000  0.000  0.000 C
 S
  0.00   0.00 M   0.00   0.00 D 250.00 500.00 D S
250.00 500.00 M 250.00 500.00 D 750.00 500.00 D S
750.00 500.00 M 750.00 500.00 D 1000.00   0.00 D S
1000.00   0.00 M 1000.00   0.00 D 500.00 250.00 D S
500.00 250.00 M  1.000  0.000  0.000 C
 S
 27.50  55.00 M  27.50  55.00 D 305.00 500.00 D S
305.00 500.00 M 305.00 500.00 D 777.50 445.00 D S
777.50 445.00 M 777.50 445.00 D 945.00  27.50 D S
945.00  27.50 M  0.000  1.000  0.000 C
 S
 58.03 103.95 M  58.03 103.95 D 356.98 493.95 D S
356.98 493.95 M 356.98 493.95 D 795.92 399.08 D S
795.92 399.08 M  0.000  0.000  1.000 C
 S
 90.91 146.85 M  90.91 146.85 D 405.26 483.51 D S
405.26 483.51 M  0.000  0.000  0.000 C
 S
  0.00   0.00 M   0.00   0.00 D 250.00 500.00 D S
250.00 500.00 M 250.00 500.00 D 750.00 500.00 D S
750.00 500.00 M 750.00 500.00 D 1000.00   0.00 D S
1000.00   0.00 M 1000.00   0.00 D 500.00 250.00 D S
500.00 250.00 M  1.000  0.000  0.000 C
 S
 30.00  60.00 M  30.00  60.00 D 310.00 500.00 D S
310.00 500.00 M 310.00 500.00 D 780.00 440.00 D S
780.00 440.00 M 780.00 440.00 D 940.00  30.00 D S
940.00  30.00 M  0.000  1.000  0.000 C
 S
 63.60 112.80 M  63.60 112.80 D 366.40 492.80 D S
366.40 492.80 M 366.40 492.80 D 799.20 390.80 D S
799.20 390.80 M  0.000  0.000  1.000 C
 S
 99.94 158.40 M  99.94 158.40 D 418.34 480.56 D S
418.34 480.56 M  0.000  0.000  0.000 C
 S
  0.00   0.00 M   0.00   0.00 D 250.00 500.00 D S
250.00 500.00 M 250.00 500.00 D 750.00 500.00 D S
750.00 500.00 M 750.00 500.00 D 1000.00   0.00 D S
1000.00   0.00 M 1000.00   0.00 D 500.00 250.00 D S
500.00 250.00 M  1.000  0.000  0.000 C
 S
 32.50  65.00 M  32.50  65.00 D 315.00 500.00 D S
315.00 500.00 M 315.00 500.00 D 782.50 435.00 D S
782.50 435.00 M 782.50 435.00 D 935.00  32.50 D S
935.00  32.50 M  0.000  1.000  0.000 C
 S
 69.23 121.55 M  69.22 121.55 D 375.77 491.55 D S
375.78 491.55 M 375.77 491.55 D 802.33 382.68 D S
802.33 382.68 M  0.000  0.000  1.000 C
 S
109.08 169.65 M 109.08 169.65 D 431.23 477.40 D S
431.23 477.40 M  0.000  0.000  0.000 C
 S
  0.00   0.00 M   0.00   0.00 D 250.00 500.00 D S
250.00 500.00 M 250.00 500.00 D 750.00 500.00 D S
750.00 500.00 M 750.00 500.00 D 1000.00   0.00 D S
1000.00   0.00 M 1000.00   0.00 D 500.00 250.00 D S
500.00 250.00 M  1.000  0.000  0.000 C
 S
 35.00  70.00 M  35.00  70.00 D 320.00 500.00 D S
320.00 500.00 M 320.00 500.00 D 785.00 430.00 D S
785.00 430.00 M 785.00 430.00 D 930.00  35.00 D S
930.00  35.00 M  0.000  1.000  0.000 C
 S
 74.90 130.20 M  74.90 130.20 D 385.10 490.20 D S
385.10 490.20 M 385.10 490.20 D 805.30 374.70 D S
805.30 374.70 M  0.000  0.000  1.000 C
 S
118.33 180.60 M 118.33 180.60 D 443.93 474.03 D S
443.93 474.03 M  0.000  0.000  0.000 C
 S
  0.00   0.00 M   0.00   0.00 D 250.00 500.00 D S
250.00 500.00 M 250.00 500.00 D 750.00 500.00 D S
750.00 500.00 M 750.00 500.00 D 1000.00   0.00 D S
1000.00   0.00 M 1000.00   0.00 D 500.00 250.00 D S
500.00 250.00 M  1.000  0.000  0.000 C
 S
 37.50  75.00 M  37.50  75.00 D 325.00 500.00 D S
325.00 500.00 M 325.00 500.00 D 787.50 425.00 D S
787.50 425.00 M 787.50 425.00 D 925.00  37.50 D S
925.00  37.50 M  0.000  1.000  0.000 C
 S
 80.63 138.75 M  80.62 138.75 D 394.38 488.75 D S
394.38 488.75 M 394.38 488.75 D 808.12 366.88 D S
808.12 366.88 M  0.000  0.000  1.000 C
 S
127.69 191.25 M 127.69 191.25 D 456.44 470.47 D S
456.44 470.47 M  0.000  0.000  0.000 C
 S
  0.00   0.00 M   0.00   0.00 D 250.00 500.00 D S
250.00 500.00 M 250.00 500.00 D 750.00 500.00 D S
750.00 500.00 M 750.00 500.00 D 1000.00   0.00 D S
1000.00   0.00 M 1000.00   0.00 D 500.00 250.00 D S
500.00 250.00 M  1.000  0.000  0.000 C
 S
 40.00  80.00 M  40.00  80.00 D 330.00 500.00 D S
330.00 500.00 M 330.00 500.00 D 790.00 420.00 D S
790.00 420.00 M 790.00 420.00 D 920.00  40.00 D S
920.00  40.00 M  0.000  1.000  0.000 C
 S
 86.40 147.20 M  86.40 147.20 D 403.60 487.20 D S
403.60 487.20 M 403.60 487.20 D 810.80 359.20 D S
810.80 359.20 M  0.000  0.000  1.000 C
 S
137.15 201.60 M 137.15 201.60 D 468.75 466.72 D S
468.75 466.72 M  0.000  0.000  0.000 C
 S
  0.00   0.00 M   0.00   0.00 D 250.00 500.00 D S
250.00 500.00 M 250.00 500.00 D 750.00 500.00 D S
750.00 500.00 M 750.00 500.00 D 1000.00   0.00 D S
1000.00   0.00 M 1000.00   0.00 D 500.00 250.00 D S
500.00 250.00 M  1.000  0.000  0.000 C
 S
 42.50  85.00 M  42.50  85.00 D 335.00 500.00 D S
335.00 500.00 M 335.00 500.00 D 792.50 415.00 D S
792.50 415.00 M 792.50 415.00 D 915.00  42.50 D S
915.00  42.50 M  0.000  1.000  0.000 C
 S
 92.23 155.55 M  92.22 155.55 D 412.77 485.55 D S
412.78 485.55 M 412.77 485.55 D 813.33 351.68 D S
813.33 351.68 M  0.000  0.000  1.000 C
 S
146.72 211.65 M 146.72 211.65 D 480.87 462.79 D S
480.87 462.79 M  0.000  0.000  0.000 C
 S
  0.00   0.00 M   0.00   0.00 D 250.00 500.00 D S
250.00 500.00 M 250.00 500.00 D 750.00 500.00 D S
750.00 500.00 M 750.00 500.00 D 1000.00   0.00 D S
1000.00   0.00 M 1000.00   0.00 D 500.00 250.00 D S
500.00 250.00 M  1.000  0.000  0.000 C
 S
 45.00  90.00 M  45.00  90.00 D 340.00 500.00 D S
340.00 500.00 M 340.00 500.00 D 795.00 410.00 D S
795.00 410.00 M 795.00 410.00 D 910.00  45.00 D S
910.00  45.00 M  0.000  1.000  0.000 C
 S
 98.10 163.80 M  98.10 163.80 D 421.90 483.80 D S
421.90 483.80 M 421.90 483.80 D 815.70 344.30 D S
815.70 344.30 M  0.000  0.000  1.000 C
 S
156.38 221.40 M 156.38 221.40 D 492.78 458.69 D S
492.78 458.69 M  0.000  0.000  0.000 C
 S
  0.00   0.00 M   0.00   0.00 D 250.00 500.00 D S
250.00 500.00 M 250.00 500.00 D 750.00 500.00 D S
750.00 500.00 M 750.00 500.00 D 1000.00   0.00 D S
1000.00   0.00 M 1000.00   0.00 D 500.00 250.00 D S
500.00 250.00 M  1.000  0.000  0.000 C
 S
 47.50  95.00 M  47.50  95.00 D 345.00 500.00 D S
345.00 500.00 M 345.00 500.00 D 797.50 405.00 D S
797.50 405.00 M 797.50 405.00 D 905.00  47.50 D S
905.00  47.50 M  0.000  1.000  0.000 C
 S
104.03 171.95 M 104.03 171.95 D 430.98 481.95 D S
430.98 481.95 M 430.98 481.95 D 817.92 337.08 D S
817.92 337.08 M  0.000  0.000  1.000 C
 S
166.15 230.85 M 166.15 230.85 D 504.50 454.42 D S
504.50 454.42 M  0.000  0.000  0.000 C
 S
  0.00   0.00 M   0.00   0.00 D 250.00 500.00 D S
250.00 500.00 M 250.00 500.00 D 750.00 500.00 D S
750.00 500.00 M 750.00 500.00 D 1000.00   0.00 D S
1000.00   0.00 M 1000.00   0.00 D 500.00 250.00 D S
500.00 250.00 M  1.000  0.000  0.000 C
 S
 50.00 100.00 M  50.00 100.00 D 350.00 500.00 D S
350.00 500.00 M 350.00 500.00 D 800.00 400.00 D S
800.00 400.00 M 800.00 400.00 D 900.00  50.00 D S
900.00  50.00 M  0.000  1.000  0.000 C
 S
110.00 180.00 M 110.00 180.00 D 440.00 480.00 D S
440.00 480.00 M 440.00 480.00 D 820.00 330.00 D S
820.00 330.00 M  0.000  0.000  1.000 C
 S
176.00 240.00 M 176.00 240.00 D 516.00 450.00 D S
516.00 450.00 M  0.000  0.000  0.000 C
 S
  0.00   0.00 M   0.00   0.00 D 250.00 500.00 D S
250.00 500.00 M 250.00 500.00 D 750.00 500.00 D S
750.00 500.00 M 750.00 500.00 D 1000.00   0.00 D S
1000.00   0.00 M 1000.00   0.00 D 500.00 250.00 D S
500.00 250.00 M  1.000  0.000  0.000 C
 S
 52.50 105.00 M  52.50 105.00 D 355.00 500.00 D S
355.00 500.00 M 355.00 500.00 D 802.50 395.00 D S
802.50 395.00 M 802.50 395.00 D 895.00  52.50 D S
895.00  52.50 M  0.000  1.000  0.000 C
 S
116.03 187.95 M 116.03 187.95 D 448.98 477.95 D S
448.98 477.95 M 448.98 477.95 D 821.92 323.08 D S
821.92 323.08 M  0.000  0.000  1.000 C
 S
185.94 248.85 M 185.94 248.85 D 527.29 445.43 D S
527.29 445.43 M  0.000  0.000  0.000 C
 S
  0.00   0.00 M   0.00   0.00 D 250.00 500.00 D S
250.00 500.00 M 250.00 500.00 D 750.00 500.00 D S
750.00 500.00 M 750.00 500.00 D 1000.00   0.00 D S
1000.00   0.00 M 1000.00   0.00 D 500.00 250.00 D S
500.00 250.00 M  1.000  0.000  0.000 C
 S
 55.00 110.00 M  55.00 110.00 D 360.00 500.00 D S
360.00 500.00 M 360.00 500.00 D 805.00 390.00 D S
805.00 390.00 M 805.00 390.00 D 890.00  55.00 D S
890.00  55.00 M  0.000  1.000  0.000 C
 S
122.10 195.80 M 122.10 195.80 D 457.90 475.80 D S
457.90 475.80 M 457.90 475.80 D 823.70 316.30 D S
823.70 316.30 M  0.000  0.000  1.000 C
 S
195.98 257.40 M 195.98 257.40 D 538.38 440.71 D S
538.38 440.71 M  0.000  0.000  0.000 C
 S
  0.00   0.00 M   0.00   0.00 D 250.00 500.00 D S
250.00 500.00 M 250.00 500.00 D 750.00 500.00 D S
750.00 500.00 M 750.00 500.00 D 1000.00   0.00 D S
1000.00   0.00 M 1000.00   0.00 D 500.00 250.00 D S
500.00 250.00 M  1.000  0.000  0.000 C
 S
 57.50 115.00 M  57.50 115.00 D 365.00 500.00 D S
365.00 500.00 M 365.00 500.00 D 807.50 385.00 D S
807.50 385.00 M 807.50 385.00 D 885.00  57.50 D S
885.00  57.50 M  0.000  1.000  0.000 C
 S
128.23 203.55 M 128.23 203.55 D 466.77 473.55 D S
466.78 473.55 M 466.77 473.55 D 825.33 309.68 D S
825.33 309.68 M  0.000  0.000  1.000 C
 S
206.09 265.65 M 206.09 265.65 D 549.24 435.86 D S
549.24 435.86 M  0.000  0.000  0.000 C
 S
  0.00   0.00 M   0.00   0.00 D 250.00 500.00 D S
250.00 500.00 M 250.00 500.00 D 750.00 500.00 D S
750.00 500.00 M 750.00 500.00 D 1000.00   0.00 D S
1000.00   0.00 M 1000.00   0.00 D 500.00 250.00 D S
500.00 250.00 M  1.000  0.000  0.000 C
 S
 60.00 120.00 M  60.00 120.00 D 370.00 500.00 D S
370.00 500.00 M 370.00 500.00 D 810.00 380.00 D S
810.00 380.00 M 810.00 380.00 D 880.00  60.00 D S
880.00  60.00 M  0.000  1.000  0.000 C
 S
134.40 211.20 M 134.40 211.20 D 475.60 471.20 D S
475.60 471.20 M 475.60 471.20 D 826.80 303.20 D S
826.80 303.20 M  0.000  0.000  1.000 C
 S
216.29 273.60 M 216.29 273.60 D 559.89 430.88 D S
559.89 430.88 M  0.000  0.000  0.000 C
 S
  0.00   0.00 M   0.00   0.00 D 250.00 500.00 D S
250.00 500.00 M 250.00 500.00 D 750.00 500.00 D S
750.00 500.00 M 750.00 500.00 D 1000.00   0.00 D S
1000.00   0.00 M 1000.00   0.00 D 500.00 250.00 D S
500.00 250.00 M  1.000  0.000  0.000 C
 S
 62.50 125.00 M  62.50 125.00 D 375.00 500.00 D S
375.00 500.00 M 375.00 500.00 D 812.50 375.00 D S
812.50 375.00 M 812.50 375.00 D 875.00  62.50 D S
875.00  62.50 M  0.000  1.000  0.000 C
 S
140.63 218.75 M 140.62 218.75 D 484.38 468.75 D S
484.38 468.75 M 484.38 468.75 D 828.12 296.88 D S
828.12 296.88 M  0.000  0.000  1.000 C
 S
226.56 281.25 M 226.56 281.25 D 570.31 425.78 D S
570.31 425.78 M  0.000  0.000  0.000 C
 S
  0.00   0.00 M   0.00   0.00 D 250.00 500.00 D S
250.00 500.00 M 250.00 500.00 D 750.00 500.00 D S
750.00 500.00 M 750.00 500.00 D 1000.00   0.00 D S
1000.00   0.00 M 1000.00   0.00 D 500.00 250.00 D S
500.00 250.00 M  1.000  0.000  0.000 C
 S
 65.00 130.00 M  65.00 130.00 D 380.00 500.00 D S
380.00 500.00 M 380.00 500.00 D 815.00 370.00 D S
815.00 370.00 M 815.00 370.00 D 870.00  65.00 D S
870.00  65.00 M  0.000  1.000  0.000 C
 S
146.90 226.20 M 146.90 226.20 D 493.10 466.20 D S
493.10 466.20 M 493.10 466.20 D 829.30 290.70 D S
829.30 290.70 M  0.000  0.000  1.000 C
 S
236.91 288.60 M 236.91 288.60 D 580.51 420.57 D S
580.51 420.57 M  0.000  0.000  0.000 C
 S
  0.00   0.00 M   0.00   0.00 D 250.00 500.00 D S
250.00 500.00 M 250.00 500.00 D 750.00 500.00 D S
750.00 500.00 M 750.00 500.00 D 1000.00   0.00 D S
1000.00   0.00 M 1000.00   0.00 D 500.00 250.00 D S
500.00 250.00 M  1.000  0.000  0.000 C
 S
 67.50 135.00 M  67.50 135.00 D 385.00 500.00 D S
385.00 500.00 M 385.00 500.00 D 817.50 365.00 D S
817.50 365.00 M 817.50 365.00 D 865.00  67.50 D S
865.00  67.50 M  0.000  1.000  0.000 C
 S
153.23 233.55 M 153.23 233.55 D 501.77 463.55 D S
501.78 463.55 M 501.77 463.55 D 830.33 284.68 D S
830.33 284.68 M  0.000  0.000  1.000 C
 S
247.33 295.65 M 247.33 295.65 D 590.48 415.25 D S
590.48 415.25 M  0.000  0.000  0.000 C
 S
  0.00   0.00 M   0.00   0.00 D 250.00 500.00 D S
250.00 500.00 M 250.00 500.00 D 750.00 500.00 D S
750.00 500.00 M 750.00 500.00 D 1000.00   0.00 D S
1000.00   0.00 M 1000.00   0.00 D 500.00 250.00 D S
500.00 250.00 M  1.000  0.000  0.000 C
 S
 70.00 140.00 M  70.00 140.00 D 390.00 500.00 D S
390.00 500.00 M 390.00 500.00 D 820.00 360.00 D S
820.00 360.00 M 820.00 360.00 D 860.00  70.00 D S
860.00  70.00 M  0.000  1.000  0.000 C
 S
159.60 240.80 M 159.60 240.80 D 510.40 460.80 D S
510.40 460.80 M 510.40 460.80 D 831.20 278.80 D S
831.20 278.80 M  0.000  0.000  1.000 C
 S
257.82 302.40 M 257.82 302.40 D 600.22 409.84 D S
600.22 409.84 M  0.000  0.000  0.000 C
 S
  0.00   0.00 M   0.00   0.00 D 250.00 500.00 D S
250.00 500.00 M 250.00 500.00 D 750.00 500.00 D S
750.00 500.00 M 750.00 500.00 D 1000.00   0.00 D S
1000.00   0.00 M 1000.00   0.00 D 500.00 250.00 D S
500.00 250.00 M  1.000  0.000  0.000 C
 S
 72.50 145.00 M  72.50 145.00 D 395.00 500.00 D S
395.00 500.00 M 395.00 500.00 D 822.50 355.00 D S
822.50 355.00 M 822.50 355.00 D 855.00  72.50 D S
855.00  72.50 M  0.000  1.000  0.000 C
 S
166.03 247.95 M 166.03 247.95 D 518.98 457.95 D S
518.98 457.95 M 518.98 457.95 D 831.92 273.08 D S
831.92 273.08 M  0.000  0.000  1.000 C
 S
268.38 308.85 M 268.38 308.85 D 609.73 404.34 D S
609.73 404.34 M  0.000  0.000  0.000 C
 S
  0.00   0.00 M   0.00   0.00 D 250.00 500.00 D S
250.00 500.00 M 250.00 500.00 D 750.00 500.00 D S
750.00 500.00 M 750.00 500.00 D 1000.00   0.00 D S
1000.00   0.00 M 1000.00   0.00 D 500.00 250.00 D S
500.00 250.00 M  1.000  0.000  0.000 C
 S
 75.00 150.00 M  75.00 150.00 D 400.00 500.00 D S
400.00 500.00 M 400.00 500.00 D 825.00 350.00 D S
825.00 350.00 M 825.00 350.00 D 850.00  75.00 D S
850.00  75.00 M  0.000  1.000  0.000 C
 S
172.50 255.00 M 172.50 255.00 D 527.50 455.00 D S
527.50 455.00 M 527.50 455.00 D 832.50 267.50 D S
832.50 267.50 M  0.000  0.000  1.000 C
 S
279.00 315.00 M 279.00 315.00 D 619.00 398.75 D S
619.00 398.75 M  0.000  0.000  0.000 C
 S
  0.00   0.00 M   0.00   0.00 D 250.00 500.00 D S
250.00 500.00 M 250.00 500.00 D 750.00 500.00 D S
750.00 500.00 M 750.00 500.00 D 1000.00   0.00 D S
1000.00   0.00 M 1000.00   0.00 D 500.00 250.00 D S
500.00 250.00 M  1.000  0.000  0.000 C
 S
 77.50 155.00 M  77.50 155.00 D 405.00 500.00 D S
405.00 500.00 M 405.00 500.00 D 827.50 345.00 D S
827.50 345.00 M 827.50 345.00 D 845.00  77.50 D S
845.00  77.50 M  0.000  1.000  0.000 C
 S
179.03 261.95 M 179.03 261.95 D 535.98 451.95 D S
535.98 451.95 M 535.98 451.95 D 832.92 262.08 D S
832.92 262.08 M  0.000  0.000  1.000 C
 S
289.68 320.85 M 289.68 320.85 D 628.03 393.09 D S
628.03 393.09 M  0.000  0.000  0.000 C
 S
  0.00   0.00 M   0.00   0.00 D 250.00 500.00 D S
250.00 500.00 M 250.00 500.00 D 750.00 500.00 D S
750.00 500.00 M 750.00 500.00 D 1000.00   0.00 D S
1000.00   0.00 M 1000.00   0.00 D 500.00 250.00 D S
500.00 250.00 M  1.000  0.000  0.000 C
 S
 80.00 160.00 M  80.00 160.00 D 410.00 500.00 D S
410.00 500.00 M 410.00 500.00 D 830.00 340.00 D S
830.00 340.00 M 830.00 340.00 D 840.00  80.00 D S
840.00  80.00 M  0.000  1.000  0.000 C
 S
185.60 268.80 M 185.60 268.80 D 544.40 448.80 D S
544.40 448.80 M 544.40 448.80 D 833.20 256.80 D S
833.20 256.80 M  0.000  0.000  1.000 C
 S
300.42 326.40 M 300.42 326.40 D 636.82 387.36 D S
636.82 387.36 M  0.000  0.000  0.000 C
 S
  0.00   0.00 M   0.00   0.00 D 250.00 500.00 D S
250.00 500.00 M 250.00 500.00 D 750.00 500.00 D S
750.00 500.00 M 750.00 500.00 D 1000.00   0.00 D S
1000.00   0.00 M 1000.00   0.00 D 500.00 250.00 D S
500.00 250.00 M  1.000  0.000  0.000 C
 S
 82.50 165.00 M  82.50 165.00 D 415.00 500.00 D S
415.00 500.00 M 415.00 500.00 D 832.50 335.00 D S
832.50 335.00 M 832.50 335.00 D 835.00  82.50 D S
835.00  82.50 M  0.000  1.000  0.000 C
 S
192.23 275.55 M 192.23 275.55 D 552.78 445.55 D S
552.78 445.55 M 552.78 445.55 D 833.33 251.68 D S
833.33 251.68 M  0.000  0.000  1.000 C
 S
311.21 331.65 M 311.21 331.65 D 645.36 381.57 D S
645.36 381.57 M  0.000  0.000  0.000 C
 S
  0.00   0.00 M   0.00   0.00 D 250.00 500.00 D S
250.00 500.00 M 250.00 500.00 D 750.00 500.00 D S
750.00 500.00 M 750.00 500.00 D 1000.00   0.00 D S
1000.00   0.00 M 1000.00   0.00 D 500.00 250.00 D S
500.00 250.00 M  1.000  0.000  0.000 C
 S
 85.00 170.00 M  85.00 170.00 D 420.00 500.00 D S
420.00 500.00 M 420.00 500.00 D 835.00 330.00 D S
835.00 330.00 M 835.00 330.00 D 830.00  85.00 D S
830.00  85.00 M  0.000  1.000  0.000 C
 S
198.90 282.20 M 198.90 282.20 D 561.10 442.20 D S
561.10 442.20 M 561.10 442.20 D 833.30 246.70 D S
833.30 246.70 M  0.000  0.000  1.000 C
 S
322.05 336.60 M 322.05 336.60 D 653.65 375.73 D S
653.65 375.73 M  0.000  0.000  0.000 C
 S
  0.00   0.00 M   0.00   0.00 D 250.00 500.00 D S
250.00 500.00 M 250.00 500.00 D 750.00 500.00 D S
750.00 500.00 M 750.00 500.00 D 1000.00   0.00 D S
1000.00   0.00 M 1000.00   0.00 D 500.00 250.00 D S
500.00 250.00 M  1.000  0.000  0.000 C
 S
 87.50 175.00 M  87.50 175.00 D 425.00 500.00 D S
425.00 500.00 M 425.00 500.00 D 837.50 325.00 D S
837.50 325.00 M 837.50 325.00 D 825.00  87.50 D S
825.00  87.50 M  0.000  1.000  0.000 C
 S
205.63 288.75 M 205.62 288.75 D 569.38 438.75 D S
569.38 438.75 M 569.38 438.75 D 833.12 241.88 D S
833.12 241.88 M  0.000  0.000  1.000 C
 S
332.94 341.25 M 332.94 341.25 D 661.69 369.84 D S
661.69 369.84 M  0.000  0.000  0.000 C
 S
  0.00   0.00 M   0.00   0.00 D 250.00 500.00 D S
250.00 500.00 M 250.00 500.00 D 750.00 500.00 D S
750.00 500.00 M 750.00 500.00 D 1000.00   0.00 D S
1000.00   0.00 M 1000.00   0.00 D 500.00 250.00 D S
500.00 250.00 M  1.000  0.000  0.000 C
 S
 90.00 180.00 M  90.00 180.00 D 430.00 500.00 D S
430.00 500.00 M 430.00 500.00 D 840.00 320.00 D S
840.00 320.00 M 840.00 320.00 D 820.00  90.00 D S
820.00  90.00 M  0.000  1.000  0.000 C
 S
212.40 295.20 M 212.40 295.20 D 577.60 435.20 D S
577.60 435.20 M 577.60 435.20 D 832.80 237.20 D S
832.80 237.20 M  0.000  0.000  1.000 C
 S
343.87 345.60 M 343.87 345.60 D 669.47 363.92 D S
669.47 363.92 M  0.000  0.000  0.000 C
 S
  0.00   0.00 M   0.00   0.00 D 250.00 500.00 D S
250.00 500.00 M 250.00 500.00 D 750.00 500.00 D S
750.00 500.00 M 750.00 500.00 D 1000.00   0.00 D S
1000.00   0.00 M 1000.00   0.00 D 500.00 250.00 D S
500.00 250.00 M  1.000  0.000  0.000 C
 S
 92.50 185.00 M  92.50 185.00 D 435.00 500.00 D S
435.00 500.00 M 435.00 500.00 D 842.50 315.00 D S
842.50 315.00 M 842.50 315.00 D 815.00  92.50 D S
815.00  92.50 M  0.000  1.000  0.000 C
 S
219.23 301.55 M 219.23 301.55 D 585.78 431.55 D S
585.78 431.55 M 585.78 431.55 D 832.33 232.68 D S
832.33 232.68 M  0.000  0.000  1.000 C
 S
354.85 349.65 M 354.85 349.65 D 677.00 357.97 D S
677.00 357.97 M  0.000  0.000  0.000 C
 S
  0.00   0.00 M   0.00   0.00 D 250.00 500.00 D S
250.00 500.00 M 250.00 500.00 D 750.00 500.00 D S
750.00 500.00 M 750.00 500.00 D 1000.00   0.00 D S
1000.00   0.00 M 1000.00   0.00 D 500.00 250.00 D S
500.00 250.00 M  1.000  0.000  0.000 C
 S
 95.00 190.00 M  95.00 190.00 D 440.00 500.00 D S
440.00 500.00 M 440.00 500.00 D 845.00 310.00 D S
845.00 310.00 M 845.00 310.00 D 810.00  95.00 D S
810.00  95.00 M  0.000  1.000  0.000 C
 S
226.10 307.80 M 226.10 307.80 D 593.90 427.80 D S
593.90 427.80 M 593.90 427.80 D 831.70 228.30 D S
831.70 228.30 M  0.000  0.000  1.000 C
 S
365.86 353.40 M 365.86 353.40 D 684.26 351.99 D S
684.26 351.99 M  0.000  0.000  0.000 C
 S
  0.00   0.00 M   0.00   0.00 D 250.00 500.00 D S
250.00 500.00 M 250.00 500.00 D 750.00 500.00 D S
750.00 500.00 M 750.00 500.00 D 1000.00   0.00 D S
1000.00   0.00 M 1000.00   0.00 D 500.00 250.00 D S
500.00 250.00 M  1.000  0.000  0.000 C
 S
 97.50 195.00 M  97.50 195.00 D 445.00 500.00 D S
445.00 500.00 M 445.00 500.00 D 847.50 305.00 D S
847.50 305.00 M 847.50 305.00 D 805.00  97.50 D S
805.00  97.50 M  0.000  1.000  0.000 C
 S
233.03 313.95 M 233.03 313.95 D 601.98 423.95 D S
601.98 423.95 M 601.98 423.95 D 830.92 224.07 D S
830.92 224.07 M  0.000  0.000  1.000 C
 S
376.92 356.85 M 376.92 356.85 D 691.27 346.00 D S
691.27 346.00 M  0.000  0.000  0.000 C
 S
  0.00   0.00 M   0.00   0.00 D 250.00 500.00 D S
250.00 500.00 M 250.00 500.00 D 750.00 500.00 D S
750.00 500.00 M 750.00 500.00 D 1000.00   0.00 D S
1000.00   0.00 M 1000.00   0.00 D 500.00 250.00 D S
500.00 250.00 M  1.000  0.000  0.000 C
 S
100.00 200.00 M 100.00 200.00 D 450.00 500.00 D S
450.00 500.00 M 450.00 500.00 D 850.00 300.00 D S
850.00 300.00 M 850.00 300.00 D 800.00 100.00 D S
800.00 100.00 M  0.000  1.000  0.000 C
 S
240.00 320.00 M 240.00 320.00 D 610.00 420.00 D S
610.00 420.00 M 610.00 420.00 D 830.00 220.00 D S
830.00 220.00 M  0.000  0.000  1.000 C
 S
388.00 360.00 M 388.00 360.00 D 698.00 340.00 D S
698.00 340.00 M  0.000  0.000  0.000 C
 S
  0.00   0.00 M   0.00   0.00 D 250.00 500.00 D S
250.00 500.00 M 250.00 500.00 D 750.00 500.00 D S
750.00 500.00 M 750.00 500.00 D 1000.00   0.00 D S
1000.00   0.00 M 1000.00   0.00 D 500.00 250.00 D S
500.00 250.00 M  1.000  0.000  0.000 C
 S
102.50 205.00 M 102.50 205.00 D 455.00 500.00 D S
455.00 500.00 M 455.00 500.00 D 852.50 295.00 D S
852.50 295.00 M 852.50 295.00 D 795.00 102.50 D S
795.00 102.50 M  0.000  1.000  0.000 C
 S
247.03 325.95 M 247.03 325.95 D 617.98 415.95 D S
617.98 415.95 M 617.98 415.95 D 828.92 216.07 D S
828.92 216.07 M  0.000  0.000  1.000 C
 S
399.11 362.85 M 399.11 362.85 D 704.46 334.00 D S
704.46 334.00 M  0.000  0.000  0.000 C
 S
  0.00   0.00 M   0.00   0.00 D 250.00 500.00 D S
250.00 500.00 M 250.00 500.00 D 750.00 500.00 D S
750.00 500.00 M 750.00 500.00 D 1000.00   0.00 D S
1000.00   0.00 M 1000.00   0.00 D 500.00 250.00 D S
500.00 250.00 M  1.000  0.000  0.000 C
 S
105.00 210.00 M 105.00 210.00 D 460.00 500.00 D S
460.00 500.00 M 460.00 500.00 D 855.00 290.00 D S
855.00 290.00 M 855.00 290.00 D 790.00 105.00 D S
790.00 105.00 M  0.000  1.000  0.000 C
 S
254.10 331.80 M 254.10 331.80 D 625.90 411.80 D S
625.90 411.80 M 625.90 411.80 D 827.70 212.30 D S
827.70 212.30 M  0.000  0.000  1.000 C
 S
410.26 365.40 M 410.26 365.40 D 710.66 328.01 D S
710.66 328.01 M  0.000  0.000  0.000 C
 S
  0.00   0.00 M   0.00   0.00 D 250.00 500.00 D S
250.00 500.00 M 250.00 500.00 D 750.00 500.00 D S
750.00 500.00 M 750.00 500.00 D 1000.00   0.00 D S
1000.00   0.00 M 1000.00   0.00 D 500.00 250.00 D S
500.00 250.00 M  1.000  0.000  0.000 C
 S
107.50 215.00 M 107.50 215.00 D 465.00 500.00 D S
465.00 500.00 M 465.00 500.00 D 857.50 285.00 D S
857.50 285.00 M 857.50 285.00 D 785.00 107.50 D S
785.00 107.50 M  0.000  1.000  0.000 C
 S
261.23 337.55 M 261.23 337.55 D 633.78 407.55 D S
633.78 407.55 M 633.78 407.55 D 826.33 208.68 D S
826.33 208.68 M  0.000  0.000  1.000 C
 S
421.42 367.65 M 421.42 367.65 D 716.57 322.03 D S
716.57 322.03 M  0.000  0.000  0.000 C
 S
  0.00   0.00 M   0.00   0.00 D 250.00 500.00 D S
250.00 500.00 M 250.00 500.00 D 750.00 500.00 D S
750.00 500.00 M 750.00 500.00 D 1000.00   0.00 D S
1000.00   0.00 M 1000.00   0.00 D 500.00 250.00 D S
500.00 250.00 M  1.000  0.000  0.000 C
 S
110.00 220.00 M 110.00 220.00 D 470.00 500.00 D S
470.00 500.00 M 470.00 500.00 D 860.00 280.00 D S
860.00 280.00 M 860.00 280.00 D 780.00 110.00 D S
780.00 110.00 M  0.000  1.000  0.000 C
 S
268.40 343.20 M 268.40 343.20 D 641.60 403.20 D S
641.60 403.20 M 641.60 403.20 D 824.80 205.20 D S
824.80 205.20 M  0.000  0.000  1.000 C
 S
432.61 369.60 M 432.61 369.60 D 722.21 316.08 D S
722.21 316.08 M  0.000  0.000  0.000 C
 S
  0.00   0.00 M   0.00   0.00 D 250.00 500.00 D S
250.00 500.00 M 250.00 500.00 D 750.00 500.00 D S
750.00 500.00 M 750.00 500.00 D 1000.00   0.00 D S
1000.00   0.00 M 1000.00   0.00 D 500.00 250.00 D S
500.00 250.00 M  1.000  0.000  0.000 C
 S
112.50 225.00 M 112.50 225.00 D 475.00 500.00 D S
475.00 500.00 M 475.00 500.00 D 862.50 275.00 D S
862.50 275.00 M 862.50 275.00 D 775.00 112.50 D S
775.00 112.50 M  0.000  1.000  0.000 C
 S
275.63 348.75 M 275.62 348.75 D 649.38 398.75 D S
649.38 398.75 M 649.38 398.75 D 823.12 201.88 D S
823.12 201.88 M  0.000  0.000  1.000 C
 S
443.81 371.25 M 443.81 371.25 D 727.56 310.16 D S
727.56 310.16 M  0.000  0.000  0.000 C
 S
  0.00   0.00 M   0.00   0.00 D 250.00 500.00 D S
250.00 500.00 M 250.00 500.00 D 750.00 500.00 D S
750.00 500.00 M 750.00 500.00 D 1000.00   0.00 D S
1000.00   0.00 M 1000.00   0.00 D 500.00 250.00 D S
500.00 250.00 M  1.000  0.000  0.000 C
 S
115.00 230.00 M 115.00 230.00 D 480.00 500.00 D S
480.00 500.00 M 480.00 500.00 D 865.00 270.00 D S
865.00 270.00 M 865.00 270.00 D 770.00 115.00 D S
770.00 115.00 M  0.000  1.000  0.000 C
 S
282.90 354.20 M 282.90 354.20 D 657.10 394.20 D S
657.10 394.20 M 657.10 394.20 D 821.30 198.70 D S
821.30 198.70 M  0.000  0.000  1.000 C
 S
455.03 372.60 M 455.03 372.60 D 732.63 304.27 D S
732.63 304.27 M  0.000  0.000  0.000 C
 S
  0.00   0.00 M   0.00   0.00 D 250.00 500.00 D S
250.00 500.00 M 250.00 500.00 D 750.00 500.00 D S
750.00 500.00 M 750.00 500.00 D 1000.00   0.00 D S
1000.00   0.00 M 1000.00   0.00 D 500.00 250.00 D S
500.00 250.00 M  1.000  0.000  0.000 C
 S
117.50 235.00 M 117.50 235.00 D 485.00 500.00 D S
485.00 500.00 M 485.00 500.00 D 867.50 265.00 D S
867.50 265.00 M 867.50 265.00 D 765.00 117.50 D S
765.00 117.50 M  0.000  1.000  0.000 C
 S
290.23 359.55 M 290.23 359.55 D 664.78 389.55 D S
664.78 389.55 M 664.78 389.55 D 819.33 195.68 D S
819.33 195.68 M  0.000  0.000  1.000 C
 S
466.26 373.65 M 466.26 373.65 D 737.41 298.43 D S
737.41 298.43 M  0.000  0.000  0.000 C
 S
  0.00   0.00 M   0.00   0.00 D 250.00 500.00 D S
250.00 500.00 M 250.00 500.00 D 750.00 500.00 D S
750.00 500.00 M 750.00 500.00 D 1000.00   0.00 D S
1000.00   0.00 M 1000.00   0.00 D 500.00 250.00 D S
500.00 250.00 M  1.000  0.000  0.000 C
 S
120.00 240.00 M 120.00 240.00 D 490.00 500.00 D S
490.00 500.00 M 490.00 500.00 D 870.00 260.00 D S
870.00 260.00 M 870.00 260.00 D 760.00 120.00 D S
760.00 120.00 M  0.000  1.000  0.000 C
 S
297.60 364.80 M 297.60 364.80 D 672.40 384.80 D S
672.40 384.80 M 672.40 384.80 D 817.20 192.80 D S
817.20 192.80 M  0.000  0.000  1.000 C
 S
477.50 374.40 M 477.50 374.40 D 741.90 292.64 D S
741.90 292.64 M  0.000  0.000  0.000 C
 S
  0.00   0.00 M   0.00   0.00 D 250.00 500.00 D S
250.00 500.00 M 250.00 500.00 D 750.00 500.00 D S
750.00 500.00 M 750.00 500.00 D 1000.00   0.00 D S
1000.00   0.00 M 1000.00   0.00 D 500.00 250.00 D S
500.00 250.00 M  1.000  0.000  0.000 C
 S
122.50 245.00 M 122.50 245.00 D 495.00 500.00 D S
495.00 500.00 M 495.00 500.00 D 872.50 255.00 D S
872.50 255.00 M 872.50 255.00 D 755.00 122.50 D S
755.00 122.50 M  0.000  1.000  0.000 C
 S
305.03 369.95 M 305.02 369.95 D 679.98 379.95 D S
679.98 379.95 M 679.98 379.95 D 814.92 190.07 D S
814.92 190.07 M  0.000  0.000  1.000 C
 S
488.75 374.85 M 488.75 374.85 D 746.10 286.91 D S
746.10 286.91 M  0.000  0.000  0.000 C
 S
  0.00   0.00 M   0.00   0.00 D 250.00 500.00 D S
250.00 500.00 M 250.00 500.00 D 750.00 500.00 D S
750.00 500.00 M 750.00 500.00 D 1000.00   0.00 D S
1000.00   0.00 M 1000.00   0.00 D 500.00 250.00 D S
500.00 250.00 M  1.000  0.000  0.000 C
 S
125.00 250.00 M 125.00 250.00 D 500.00 500.00 D S
500.00 500.00 M 500.00 500.00 D 875.00 250.00 D S
875.00 250.00 M 875.00 250.00 D 750.00 125.00 D S
750.00 125.00 M  0.000  1.000  0.000 C
 S
312.50 375.00 M 312.50 375.00 D 687.50 375.00 D S
687.50 375.00 M 687.50 375.00 D 812.50 187.50 D S
812.50 187.50 M  0.000  0.000  1.000 C
 S
500.00 375.00 M 500.00 375.00 D 750.00 281.25 D S
750.00 281.25 M  0.000  0.000  0.000 C
 S
  0.00   0.00 M   0.00   0.00 D 250.00 500.00 D S
250.00 500.00 M 250.00 500.00 D 750.00 500.00 D S
750.00 500.00 M 750.00 500.00 D 1000.00   0.00 D S
1000.00   0.00 M 1000.00   0.00 D 500.00 250.00 D S
500.00 250.00 M  1.000  0.000  0.000 C
 S
127.50 255.00 M 127.50 255.00 D 505.00 500.00 D S
505.00 500.00 M 505.00 500.00 D 877.50 245.00 D S
877.50 245.00 M 877.50 245.00 D 745.00 127.50 D S
745.00 127.50 M  0.000  1.000  0.000 C
 S
320.03 379.95 M 320.02 379.95 D 694.98 369.95 D S
694.98 369.95 M 694.98 369.95 D 809.92 185.07 D S
809.92 185.07 M  0.000  0.000  1.000 C
 S
511.25 374.85 M 511.25 374.85 D 753.60 275.66 D S
753.60 275.66 M  0.000  0.000  0.000 C
 S
  0.00   0.00 M   0.00   0.00 D 250.00 500.00 D S
250.00 500.00 M 250.00 500.00 D 750.00 500.00 D S
750.00 500.00 M 750.00 500.00 D 1000.00   0.00 D S
1000.00   0.00 M 1000.00   0.00 D 500.00 250.00 D S
500.00 250.00 M  1.000  0.000  0.000 C
 S
130.00 260.00 M 130.00 260.00 D 510.00 500.00 D S
510.00 500.00 M 510.00 500.00 D 880.00 240.00 D S
880.00 240.00 M 880.00 240.00 D 740.00 130.00 D S
740.00 130.00 M  0.000  1.000  0.000 C
 S
327.60 384.80 M 327.60 384.80 D 702.40 364.80 D S
702.40 364.80 M 702.40 364.80 D 807.20 182.80 D S
807.20 182.80 M  0.000  0.000  1.000 C
 S
522.50 374.40 M 522.50 374.40 D 756.90 270.16 D S
756.90 270.16 M  0.000  0.000  0.000 C
 S
  0.00   0.00 M   0.00   0.00 D 250.00 500.00 D S
250.00 500.00 M 250.00 500.00 D 750.00 500.00 D S
750.00 500.00 M 750.00 500.00 D 1000.00   0.00 D S
1000.00   0.00 M 1000.00   0.00 D 500.00 250.00 D S
500.00 250.00 M  1.000  0.000  0.000 C
 S
132.50 265.00 M 132.50 265.00 D 515.00 500.00 D S
515.00 500.00 M 515.00 500.00 D 882.50 235.00 D S
882.50 235.00 M 882.50 235.00 D 735.00 132.50 D S
735.00 132.50 M  0.000  1.000  0.000 C
 S
335.23 389.55 M 335.23 389.55 D 709.78 359.55 D S
709.78 359.55 M 709.78 359.55 D 804.33 180.68 D S
804.33 180.68 M  0.000  0.000  1.000 C
 S
533.74 373.65 M 533.74 373.65 D 759.89 264.75 D S
759.89 264.75 M  0.000  0.000  0.000 C
 S
  0.00   0.00 M   0.00   0.00 D 250.00 500.00 D S
250.00 500.00 M 250.00 500.00 D 750.00 500.00 D S
750.00 500.00 M 750.00 500.00 D 1000.00   0.00 D S
1000.00   0.00 M 1000.00   0.00 D 500.00 250.00 D S
500.00 250.00 M  1.000  0.000  0.000 C
 S
135.00 270.00 M 135.00 270.00 D 520.00 500.00 D S
520.00 500.00 M 520.00 500.00 D 885.00 230.00 D S
885.00 230.00 M 885.00 230.00 D 730.00 135.00 D S
730.00 135.00 M  0.000  1.000  0.000 C
 S
342.90 394.20 M 342.90 394.20 D 717.10 354.20 D S
717.10 354.20 M 717.10 354.20 D 801.30 178.70 D S
801.30 178.70 M  0.000  0.000  1.000 C
 S
544.97 372.60 M 544.97 372.60 D 762.57 259.43 D S
762.57 259.43 M  0.000  0.000  0.000 C
 S
  0.00   0.00 M   0.00   0.00 D 250.00 500.00 D S
250.00 500.00 M 250.00 500.00 D 750.00 500.00 D S
750.00 500.00 M 750.00 500.00 D 1000.00   0.00 D S
1000.00   0.00 M 1000.00   0.00 D 500.00 250.00 D S
500.00 250.00 M  1.000  0.000  0.000 C
 S
137.50 275.00 M 137.50 275.00 D 525.00 500.00 D S
525.00 500.00 M 525.00 500.00 D 887.50 225.00 D S
887.50 225.00 M 887.50 225.00 D 725.00 137.50 D S
725.00 137.50 M  0.000  1.000  0.000 C
 S
350.63 398.75 M 350.62 398.75 D 724.38 348.75 D S
724.38 348.75 M 724.38 348.75 D 798.12 176.88 D S
798.12 176.88 M  0.000  0.000  1.000 C
 S
556.19 371.25 M 556.19 371.25 D 764.94 254.22 D S
764.94 254.22 M  0.000  0.000  0.000 C
 S
  0.00   0.00 M   0.00   0.00 D 250.00 500.00 D S
250.00 500.00 M 250.00 500.00 D 750.00 500.00 D S
750.00 500.00 M 750.00 500.00 D 1000.00   0.00 D S
1000.00   0.00 M 1000.00   0.00 D 500.00 250.00 D S
500.00 250.00 M  1.000  0.000  0.000 C
 S
140.00 280.00 M 140.00 280.00 D 530.00 500.00 D S
530.00 500.00 M 530.00 500.00 D 890.00 220.00 D S
890.00 220.00 M 890.00 220.00 D 720.00 140.00 D S
720.00 140.00 M  0.000  1.000  0.000 C
 S
358.40 403.20 M 358.40 403.20 D 731.60 343.20 D S
731.60 343.20 M 731.60 343.20 D 794.80 175.20 D S
794.80 175.20 M  0.000  0.000  1.000 C
 S
567.39 369.60 M 567.39 369.60 D 766.99 249.12 D S
766.99 249.12 M  0.000  0.000  0.000 C
 S
  0.00   0.00 M   0.00   0.00 D 250.00 500.00 D S
250.00 500.00 M 250.00 500.00 D 750.00 500.00 D S
750.00 500.00 M 750.00 500.00 D 1000.00   0.00 D S
1000.00   0.00 M 1000.00   0.00 D 500.00 250.00 D S
500.00 250.00 M  1.000  0.000  0.000 C
 S
142.50 285.00 M 142.50 285.00 D 535.00 500.00 D S
535.00 500.00 M 535.00 500.00 D 892.50 215.00 D S
892.50 215.00 M 892.50 215.00 D 715.00 142.50 D S
715.00 142.50 M  0.000  1.000  0.000 C
 S
366.23 407.55 M 366.23 407.55 D 738.78 337.55 D S
738.78 337.55 M 738.78 337.55 D 791.33 173.68 D S
791.33 173.68 M  0.000  0.000  1.000 C
 S
578.58 367.65 M 578.58 367.65 D 768.73 244.14 D S
768.73 244.14 M  0.000  0.000  0.000 C
 S
  0.00   0.00 M   0.00   0.00 D 250.00 500.00 D S
250.00 500.00 M 250.00 500.00 D 750.00 500.00 D S
750.00 500.00 M 750.00 500.00 D 1000.00   0.00 D S
1000.00   0.00 M 1000.00   0.00 D 500.00 250.00 D S
500.00 250.00 M  1.000  0.000  0.000 C
 S
145.00 290.00 M 145.00 290.00 D 540.00 500.00 D S
540.00 500.00 M 540.00 500.00 D 895.00 210.00 D S
895.00 210.00 M 895.00 210.00 D 710.00 145.00 D S
710.00 145.00 M  0.000  1.000  0.000 C
 S
374.10 411.80 M 374.10 411.80 D 745.90 331.80 D S
745.90 331.80 M 745.90 331.80 D 787.70 172.30 D S
787.70 172.30 M  0.000  0.000  1.000 C
 S
589.74 365.40 M 589.74 365.40 D 770.14 239.29 D S
770.14 239.29 M  0.000  0.000  0.000 C
 S
  0.00   0.00 M   0.00   0.00 D 250.00 500.00 D S
250.00 500.00 M 250.00 500.00 D 750.00 500.00 D S
750.00 500.00 M 750.00 500.00 D 1000.00   0.00 D S
1000.00   0.00 M 1000.00   0.00 D 500.00 250.00 D S
500.00 250.00 M  1.000  0.000  0.000 C
 S
147.50 295.00 M 147.50 295.00 D 545.00 500.00 D S
545.00 500.00 M 545.00 500.00 D 897.50 205.00 D S
897.50 205.00 M 897.50 205.00 D 705.00 147.50 D S
705.00 147.50 M  0.000  1.000  0.000 C
 S
382.03 415.95 M 382.02 415.95 D 752.98 325.95 D S
752.98 325.95 M 752.98 325.95 D 783.92 171.07 D S
783.92 171.07 M  0.000  0.000  1.000 C
 S
600.89 362.85 M 600.89 362.85 D 771.24 234.57 D S
771.24 234.57 M  0.000  0.000  0.000 C
 S
  0.00   0.00 M   0.00   0.00 D 250.00 500.00 D S
250.00 500.00 M 250.00 500.00 D 750.00 500.00 D S
750.00 500.00 M 750.00 500.00 D 1000.00   0.00 D S
1000.00   0.00 M 1000.00   0.00 D 500.00 250.00 D S
500.00 250.00 M  1.000  0.000  0.000 C
 S
150.00 300.00 M 150.00 300.00 D 550.00 500.00 D S
550.00 500.00 M 550.00 500.00 D 900.00 200.00 D S
900.00 200.00 M 900.00 200.00 D 700.00 150.00 D S
700.00 150.00 M  0.000  1.000  0.000 C
 S
390.00 420.00 M 390.00 420.00 D 760.00 320.00 D S
760.00 320.00 M 760.00 320.00 D 780.00 170.00 D S
780.00 170.00 M  0.000  0.000  1.000 C
 S
612.00 360.00 M 612.00 360.00 D 772.00 230.00 D S
772.00 230.00 M  0.000  0.000  0.000 C
 S
  0.00   0.00 M   0.00   0.00 D 250.00 500.00 D S
250.00 500.00 M 250.00 500.00 D 750.00 500.00 D S
750.00 500.00 M 750.00 500.00 D 1000.00   0.00 D S
1000.00   0.00 M 1000.00   0.00 D 500.00 250.00 D S
500.00 250.00 M  1.000  0.000  0.000 C
 S
152.50 305.00 M 152.50 305.00 D 555.00 500.00 D S
555.00 500.00 M 555.00 500.00 D 902.50 195.00 D S
902.50 195.00 M 902.50 195.00 D 695.00 152.50 D S
695.00 152.50 M  0.000  1.000  0.000 C
 S
398.03 423.95 M 398.02 423.95 D 766.98 313.95 D S
766.98 313.95 M 766.98 313.95 D 775.92 169.07 D S
775.92 169.07 M  0.000  0.000  1.000 C
 S
623.08 356.85 M 623.08 356.85 D 772.43 225.58 D S
772.43 225.58 M  0.000  0.000  0.000 C
 S
  0.00   0.00 M   0.00   0.00 D 250.00 500.00 D S
250.00 500.00 M 250.00 500.00 D 750.00 500.00 D S
750.00 500.00 M 750.00 500.00 D 1000.00   0.00 D S
1000.00   0.00 M 1000.00   0.00 D 500.00 250.00 D S
500.00 250.00 M  1.000  0.000  0.000 C
 S
155.00 310.00 M 155.00 310.00 D 560.00 500.00 D S
560.00 500.00 M 560.00 500.00 D 905.00 190.00 D S
905.00 190.00 M 905.00 190.00 D 690.00 155.00 D S
690.00 155.00 M  0.000  1.000  0.000 C
 S
406.10 427.80 M 406.10 427.80 D 773.90 307.80 D S
773.90 307.80 M 773.90 307.80 D 771.70 168.30 D S
771.70 168.30 M  0.000  0.000  1.000 C
 S
634.14 353.40 M 634.14 353.40 D 772.54 221.31 D S
772.54 221.31 M  0.000  0.000  0.000 C
 S
  0.00   0.00 M   0.00   0.00 D 250.00 500.00 D S
250.00 500.00 M 250.00 500.00 D 750.00 500.00 D S
750.00 500.00 M 750.00 500.00 D 1000.00   0.00 D S
1000.00   0.00 M 1000.00   0.00 D 500.00 250.00 D S
500.00 250.00 M  1.000  0.000  0.000 C
 S
157.50 315.00 M 157.50 315.00 D 565.00 500.00 D S
565.00 500.00 M 565.00 500.00 D 907.50 185.00 D S
907.50 185.00 M 907.50 185.00 D 685.00 157.50 D S
685.00 157.50 M  0.000  1.000  0.000 C
 S
414.23 431.55 M 414.23 431.55 D 780.78 301.55 D S
780.78 301.55 M 780.78 301.55 D 767.33 167.68 D S
767.33 167.68 M  0.000  0.000  1.000 C
 S
645.15 349.65 M 645.15 349.65 D 772.30 217.21 D S
772.30 217.21 M  0.000  0.000  0.000 C
 S
  0.00   0.00 M   0.00   0.00 D 250.00 500.00 D S
250.00 500.00 M 250.00 500.00 D 750.00 500.00 D S
750.00 500.00 M 750.00 500.00 D 1000.00   0.00 D S
1000.00   0.00 M 1000.00   0.00 D 500.00 250.00 D S
500.00 250.00 M  1.000  0.000  0.000 C
 S
160.00 320.00 M 160.00 320.00 D 570.00 500.00 D S
570.00 500.00 M 570.00 500.00 D 910.00 180.00 D S
910.00 180.00 M 910.00 180.00 D 680.00 160.00 D S
680.00 160.00 M  0.000  1.000  0.000 C
 S
422.40 435.20 M 422.40 435.20 D 787.60 295.20 D S
787.60 295.20 M 787.60 295.20 D 762.80 167.20 D S
762.80 167.20 M  0.000  0.000  1.000 C
 S
656.13 345.60 M 656.13 345.60 D 771.73 213.28 D S
771.73 213.28 M  0.000  0.000  0.000 C
 S
  0.00   0.00 M   0.00   0.00 D 250.00 500.00 D S
250.00 500.00 M 250.00 500.00 D 750.00 500.00 D S
750.00 500.00 M 750.00 500.00 D 1000.00   0.00 D S
1000.00   0.00 M 1000.00   0.00 D 500.00 250.00 D S
500.00 250.00 M  1.000  0.000  0.000 C
 S
162.50 325.00 M 162.50 325.00 D 575.00 500.00 D S
575.00 500.00 M 575.00 500.00 D 912.50 175.00 D S
912.50 175.00 M 912.50 175.00 D 675.00 162.50 D S
675.00 162.50 M  0.000  1.000  0.000 C
 S
430.63 438.75 M 430.62 438.75 D 794.38 288.75 D S
794.38 288.75 M 794.38 288.75 D 758.12 166.88 D S
758.12 166.88 M  0.000  0.000  1.000 C
 S
667.06 341.25 M 667.06 341.25 D 770.81 209.53 D S
770.81 209.53 M  0.000  0.000  0.000 C
 S
  0.00   0.00 M   0.00   0.00 D 250.00 500.00 D S
250.00 500.00 M 250.00 500.00 D 750.00 500.00 D S
750.00 500.00 M 750.00 500.00 D 1000.00   0.00 D S
1000.00   0.00 M 1000.00   0.00 D 500.00 250.00 D S
500.00 250.00 M  1.000  0.000  0.000 C
 S
165.00 330.00 M 165.00 330.00 D 580.00 500.00 D S
580.00 500.00 M 580.00 500.00 D 915.00 170.00 D S
915.00 170.00 M 915.00 170.00 D 670.00 165.00 D S
670.00 165.00 M  0.000  1.000  0.000 C
 S
438.90 442.20 M 438.90 442.20 D 801.10 282.20 D S
801.10 282.20 M 801.10 282.20 D 753.30 166.70 D S
753.30 166.70 M  0.000  0.000  1.000 C
 S
677.95 336.60 M 677.95 336.60 D 769.55 205.97 D S
769.55 205.97 M  0.000  0.000  0.000 C
 S
  0.00   0.00 M   0.00   0.00 D 250.00 500.00 D S
250.00 500.00 M 250.00 500.00 D 750.00 500.00 D S
750.00 500.00 M 750.00 500.00 D 1000.00   0.00 D S
1000.00   0.00 M 1000.00   0.00 D 500.00 250.00 D S
500.00 250.00 M  1.000  0.000  0.000 C
 S
167.50 335.00 M 167.50 335.00 D 585.00 500.00 D S
585.00 500.00 M 585.00 500.00 D 917.50 165.00 D S
917.50 165.00 M 917.50 165.00 D 665.00 167.50 D S
665.00 167.50 M  0.000  1.000  0.000 C
 S
447.23 445.55 M 447.23 445.55 D 807.78 275.55 D S
807.78 275.55 M 807.78 275.55 D 748.33 166.68 D S
748.33 166.68 M  0.000  0.000  1.000 C
 S
688.79 331.65 M 688.79 331.65 D 767.94 202.60 D S
767.94 202.60 M  0.000  0.000  0.000 C
 S
  0.00   0.00 M   0.00   0.00 D 250.00 500.00 D S
250.00 500.00 M 250.00 500.00 D 750.00 500.00 D S
750.00 500.00 M 750.00 500.00 D 1000.00   0.00 D S
1000.00   0.00 M 1000.00   0.00 D 500.00 250.00 D S
500.00 250.00 M  1.000  0.000  0.000 C
 S
170.00 340.00 M 170.00 340.00 D 590.00 500.00 D S
590.00 500.00 M 590.00 500.00 D 920.00 160.00 D S
920.00 160.00 M 920.00 160.00 D 660.00 170.00 D S
660.00 170.00 M  0.000  1.000  0.000 C
 S
455.60 448.80 M 455.60 448.80 D 814.40 268.80 D S
814.40 268.80 M 814.40 268.80 D 743.20 166.80 D S
743.20 166.80 M  0.000  0.000  1.000 C
 S
699.58 326.40 M 699.58 326.40 D 765.98 199.44 D S
765.98 199.44 M  0.000  0.000  0.000 C
 S
  0.00   0.00 M   0.00   0.00 D 250.00 500.00 D S
250.00 500.00 M 250.00 500.00 D 750.00 500.00 D S
750.00 500.00 M 750.00 500.00 D 1000.00   0.00 D S
1000.00   0.00 M 1000.00   0.00 D 500.00 250.00 D S
500.00 250.00 M  1.000  0.000  0.000 C
 S
172.50 345.00 M 172.50 345.00 D 595.00 500.00 D S
595.00 500.00 M 595.00 500.00 D 922.50 155.00 D S
922.50 155.00 M 922.50 155.00 D 655.00 172.50 D S
655.00 172.50 M  0.000  1.000  0.000 C
 S
464.03 451.95 M 464.02 451.95 D 820.98 261.95 D S
820.98 261.95 M 820.98 261.95 D 737.92 167.07 D S
737.92 167.07 M  0.000  0.000  1.000 C
 S
710.32 320.85 M 710.32 320.85 D 763.67 196.49 D S
763.67 196.49 M  0.000  0.000  0.000 C
 S
  0.00   0.00 M   0.00   0.00 D 250.00 500.00 D S
250.00 500.00 M 250.00 500.00 D 750.00 500.00 D S
750.00 500.00 M 750.00 500.00 D 1000.00   0.00 D S
1000.00   0.00 M 1000.00   0.00 D 500.00 250.00 D S
500.00 250.00 M  1.000  0.000  0.000 C
 S
175.00 350.00 M 175.00 350.00 D 600.00 500.00 D S
600.00 500.00 M 600.00 500.00 D 925.00 150.00 D S
925.00 150.00 M 925.00 150.00 D 650.00 175.00 D S
650.00 175.00 M  0.000  1.000  0.000 C
 S
472.50 455.00 M 472.50 455.00 D 827.50 255.00 D S
827.50 255.00 M 827.50 255.00 D 732.50 167.50 D S
732.50 167.50 M  0.000  0.000  1.000 C
 S
721.00 315.00 M 721.00 315.00 D 761.00 193.75 D S
761.00 193.75 M  0.000  0.000  0.000 C
 S
  0.00   0.00 M   0.00   0.00 D 250.00 500.00 D S
250.00 500.00 M 250.00 500.00 D 750.00 500.00 D S
750.00 500.00 M 750.00 500.00 D 1000.00   0.00 D S
1000.00   0.00 M 1000.00   0.00 D 500.00 250.00 D S
500.00 250.00 M  1.000  0.000  0.000 C
 S
177.50 355.00 M 177.50 355.00 D 605.00 500.00 D S
605.00 500.00 M 605.00 500.00 D 927.50 145.00 D S
927.50 145.00 M 927.50 145.00 D 645.00 177.50 D S
645.00 177.50 M  0.000  1.000  0.000 C
 S
481.03 457.95 M 481.02 457.95 D 833.98 247.95 D S
833.98 247.95 M 833.98 247.95 D 726.92 168.07 D S
726.92 168.07 M  0.000  0.000  1.000 C
 S
731.62 308.85 M 731.62 308.85 D 757.97 191.24 D S
757.97 191.24 M  0.000  0.000  0.000 C
 S
  0.00   0.00 M   0.00   0.00 D 250.00 500.00 D S
250.00 500.00 M 250.00 500.00 D 750.00 500.00 D S
750.00 500.00 M 750.00 500.00 D 1000.00   0.00 D S
1000.00   0.00 M 1000.00   0.00 D 500.00 250.00 D S
500.00 250.00 M  1.000  0.000  0.000 C
 S
180.00 360.00 M 180.00 360.00 D 610.00 500.00 D S
610.00 500.00 M 610.00 500.00 D 930.00 140.00 D S
930.00 140.00 M 930.00 140.00 D 640.00 180.00 D S
640.00 180.00 M  0.000  1.000  0.000 C
 S
489.60 460.80 M 489.60 460.80 D 840.40 240.80 D S
840.40 240.80 M 840.40 240.80 D 721.20 168.80 D S
721.20 168.80 M  0.000  0.000  1.000 C
 S
742.18 302.40 M 742.18 302.40 D 754.58 188.96 D S
754.58 188.96 M  0.000  0.000  0.000 C
 S
  0.00   0.00 M   0.00   0.00 D 250.00 500.00 D S
250.00 500.00 M 250.00 500.00 D 750.00 500.00 D S
750.00 500.00 M 750.00 500.00 D 1000.00   0.00 D S
1000.00   0.00 M 1000.00   0.00 D 500.00 250.00 D S
500.00 250.00 M  1.000  0.000  0.000 C
 S
182.50 365.00 M 182.50 365.00 D 615.00 500.00 D S
615.00 500.00 M 615.00 500.00 D 932.50 135.00 D S
932.50 135.00 M 932.50 135.00 D 635.00 182.50 D S
635.00 182.50 M  0.000  1.000  0.000 C
 S
498.23 463.55 M 498.23 463.55 D 846.78 233.55 D S
846.78 233.55 M 846.78 233.55 D 715.33 169.68 D S
715.33 169.68 M  0.000  0.000  1.000 C
 S
752.67 295.65 M 752.67 295.65 D 750.82 186.92 D S
750.82 186.92 M  0.000  0.000  0.000 C
 S
  0.00   0.00 M   0.00   0.00 D 250.00 500.00 D S
250.00 500.00 M 250.00 500.00 D 750.00 500.00 D S
750.00 500.00 M 750.00 500.00 D 1000.00   0.00 D S
1000.00   0.00 M 1000.00   0.00 D 500.00 250.00 D S
500.00 250.00 M  1.000  0.000  0.000 C
 S
185.00 370.00 M 185.00 370.00 D 620.00 500.00 D S
620.00 500.00 M 620.00 500.00 D 935.00 130.00 D S
935.00 130.00 M 935.00 130.00 D 630.00 185.00 D S
630.00 185.00 M  0.000  1.000  0.000 C
 S
506.90 466.20 M 506.90 466.20 D 853.10 226.20 D S
853.10 226.20 M 853.10 226.20 D 709.30 170.70 D S
709.30 170.70 M  0.000  0.000  1.000 C
 S
763.09 288.60 M 763.09 288.60 D 746.69 185.13 D S
746.69 185.13 M  0.000  0.000  0.000 C
 S
  0.00   0.00 M   0.00   0.00 D 250.00 500.00 D S
250.00 500.00 M 250.00 500.00 D 750.00 500.00 D S
750.00 500.00 M 750.00 500.00 D 1000.00   0.00 D S
1000.00   0.00 M 1000.00   0.00 D 500.00 250.00 D S
500.00 250.00 M  1.000  0.000  0.000 C
 S
187.50 375.00 M 187.50 375.00 D 625.00 500.00 D S
625.00 500.00 M 625.00 500.00 D 937.50 125.00 D S
937.50 125.00 M 937.50 125.00 D 625.00 187.50 D S
625.00 187.50 M  0.000  1.000  0.000 C
 S
515.63 468.75 M 515.62 468.75 D 859.38 218.75 D S
859.38 218.75 M 859.38 218.75 D 703.12 171.88 D S
703.12 171.88 M  0.000  0.000  1.000 C
 S
773.44 281.25 M 773.44 281.25 D 742.19 183.59 D S
742.19 183.59 M  0.000  0.000  0.000 C
 S
  0.00   0.00 M   0.00   0.00 D 250.00 500.00 D S
250.00 500.00 M 250.00 500.00 D 750.00 500.00 D S
750.00 500.00 M 750.00 500.00 D 1000.00   0.00 D S
1000.00   0.00 M 1000.00   0.00 D 500.00 250.00 D S
500.00 250.00 M  1.000  0.000  0.000 C
 S
190.00 380.00 M 190.00 380.00 D 630.00 500.00 D S
630.00 500.00 M 630.00 500.00 D 940.00 120.00 D S
940.00 120.00 M 940.00 120.00 D 620.00 190.00 D S
620.00 190.00 M  0.000  1.000  0.000 C
 S
524.40 471.20 M 524.40 471.20 D 865.60 211.20 D S
865.60 211.20 M 865.60 211.20 D 696.80 173.20 D S
696.80 173.20 M  0.000  0.000  1.000 C
 S
783.71 273.60 M 783.71 273.60 D 737.31 182.32 D S
737.31 182.32 M  0.000  0.000  0.000 C
 S
  0.00   0.00 M   0.00   0.00 D 250.00 500.00 D S
250.00 500.00 M 250.00 500.00 D 750.00 500.00 D S
750.00 500.00 M 750.00 500.00 D 1000.00   0.00 D S
1000.00   0.00 M 1000.00   0.00 D 500.00 250.00 D S
500.00 250.00 M  1.000  0.000  0.000 C
 S
192.50 385.00 M 192.50 385.00 D 635.00 500.00 D S
635.00 500.00 M 635.00 500.00 D 942.50 115.00 D S
942.50 115.00 M 942.50 115.00 D 615.00 192.50 D S
615.00 192.50 M  0.000  1.000  0.000 C
 S
533.23 473.55 M 533.23 473.55 D 871.78 203.55 D S
871.78 203.55 M 871.78 203.55 D 690.33 174.68 D S
690.33 174.68 M  0.000  0.000  1.000 C
 S
793.91 265.65 M 793.91 265.65 D 732.06 181.32 D S
732.06 181.32 M  0.000  0.000  0.000 C
 S
  0.00   0.00 M   0.00   0.00 D 250.00 500.00 D S
250.00 500.00 M 250.00 500.00 D 750.00 500.00 D S
750.00 500.00 M 750.00 500.00 D 1000.00   0.00 D S
1000.00   0.00 M 1000.00   0.00 D 500.00 250.00 D S
500.00 250.00 M  1.000  0.000  0.000 C
 S
195.00 390.00 M 195.00 390.00 D 640.00 500.00 D S
640.00 500.00 M 640.00 500.00 D 945.00 110.00 D S
945.00 110.00 M 945.00 110.00 D 610.00 195.00 D S
610.00 195.00 M  0.000  1.000  0.000 C
 S
542.10 475.80 M 542.10 475.80 D 877.90 195.80 D S
877.90 195.80 M 877.90 195.80 D 683.70 176.30 D S
683.70 176.30 M  0.000  0.000  1.000 C
 S
804.02 257.40 M 804.02 257.40 D 726.42 180.59 D S
726.42 180.59 M  0.000  0.000  0.000 C
 S
  0.00   0.00 M   0.00   0.00 D 250.00 500.00 D S
250.00 500.00 M 250.00 500.00 D 750.00 500.00 D S
750.00 500.00 M 750.00 500.00 D 1000.00   0.00 D S
1000.00   0.00 M 1000.00   0.00 D 500.00 250.00 D S
500.00 250.00 M  1.000  0.000  0.000 C
 S
197.50 395.00 M 197.50 395.00 D 645.00 500.00 D S
645.00 500.00 M 645.00 500.00 D 947.50 105.00 D S
947.50 105.00 M 947.50 105.00 D 605.00 197.50 D S
605.00 197.50 M  0.000  1.000  0.000 C
 S
551.03 477.95 M 551.03 477.95 D 883.98 187.95 D S
883.98 187.95 M 883.98 187.95 D 676.92 178.07 D S
676.92 178.07 M  0.000  0.000  1.000 C
 S
814.06 248.85 M 814.06 248.85 D 720.41 180.15 D S
720.41 180.15 M  0.000  0.000  0.000 C
 S
  0.00   0.00 M   0.00   0.00 D 250.00 500.00 D S
250.00 500.00 M 250.00 500.00 D 750.00 500.00 D S
750.00 500.00 M 750.00 500.00 D 1000.00   0.00 D S
1000.00   0.00 M 1000.00   0.00 D 500.00 250.00 D S
500.00 250.00 M  1.000  0.000  0.000 C
 S
200.00 400.00 M 200.00 400.00 D 650.00 500.00 D S
650.00 500.00 M 650.00 500.00 D 950.00 100.00 D S
950.00 100.00 M 950.00 100.00 D 600.00 200.00 D S
600.00 200.00 M  0.000  1.000  0.000 C
 S
560.00 480.00 M 560.00 480.00 D 890.00 180.00 D S
890.00 180.00 M 890.00 180.00 D 670.00 180.00 D S
670.00 180.00 M  0.000  0.000  1.000 C
 S
824.00 240.00 M 824.00 240.00 D 714.00 180.00 D S
714.00 180.00 M  0.000  0.000  0.000 C
 S
  0.00   0.00 M   0.00   0.00 D 250.00 500.00 D S
250.00 500.00 M 250.00 500.00 D 750.00 500.00 D S
750.00 500.00 M 750.00 500.00 D 1000.00   0.00 D S
1000.00   0.00 M 1000.00   0.00 D 500.00 250.00 D S
500.00 250.00 M  1.000  0.000  0.000 C
 S
202.50 405.00 M 202.50 405.00 D 655.00 500.00 D S
655.00 500.00 M 655.00 500.00 D 952.50  95.00 D S
952.50  95.00 M 952.50  95.00 D 595.00 202.50 D S
595.00 202.50 M  0.000  1.000  0.000 C
 S
569.03 481.95 M 569.03 481.95 D 895.98 171.95 D S
895.98 171.95 M 895.98 171.95 D 662.92 182.07 D S
662.92 182.07 M  0.000  0.000  1.000 C
 S
833.85 230.85 M 833.85 230.85 D 707.20 180.15 D S
707.20 180.15 M  0.000  0.000  0.000 C
 S
  0.00   0.00 M   0.00   0.00 D 250.00 500.00 D S
250.00 500.00 M 250.00 500.00 D 750.00 500.00 D S
750.00 500.00 M 750.00 500.00 D 1000.00   0.00 D S
1000.00   0.00 M 1000.00   0.00 D 500.00 250.00 D S
500.00 250.00 M  1.000  0.000  0.000 C
 S
205.00 410.00 M 205.00 410.00 D 660.00 500.00 D S
660.00 500.00 M 660.00 500.00 D 955.00  90.00 D S
955.00  90.00 M 955.00  90.00 D 590.00 205.00 D S
590.00 205.00 M  0.000  1.000  0.000 C
 S
578.10 483.80 M 578.10 483.80 D 901.90 163.80 D S
901.90 163.80 M 901.90 163.80 D 655.70 184.30 D S
655.70 184.30 M  0.000  0.000  1.000 C
 S
843.62 221.40 M 843.62 221.40 D 700.02 180.61 D S
700.02 180.61 M  0.000  0.000  0.000 C
 S
  0.00   0.00 M   0.00   0.00 D 250.00 500.00 D S
250.00 500.00 M 250.00 500.00 D 750.00 500.00 D S
750.00 500.00 M 750.00 500.00 D 1000.00   0.00 D S
1000.00   0.00 M 1000.00   0.00 D 500.00 250.00 D S
500.00 250.00 M  1.000  0.000  0.000 C
 S
207.50 415.00 M 207.50 415.00 D 665.00 500.00 D S
665.00 500.00 M 665.00 500.00 D 957.50  85.00 D S
957.50  85.00 M 957.50  85.00 D 585.00 207.50 D S
585.00 207.50 M  0.000  1.000  0.000 C
 S
587.23 485.55 M 587.23 485.55 D 907.78 155.55 D S
907.78 155.55 M 907.78 155.55 D 648.33 186.68 D S
648.33 186.68 M  0.000  0.000  1.000 C
 S
853.28 211.65 M 853.28 211.65 D 692.43 181.38 D S
692.43 181.38 M  0.000  0.000  0.000 C
 S
  0.00   0.00 M   0.00   0.00 D 250.00 500.00 D S
250.00 500.00 M 250.00 500.00 D 750.00 500.00 D S
750.00 500.00 M 750.00 500.00 D 1000.00   0.00 D S
1000.00   0.00 M 1000.00   0.00 D 500.00 250.00 D S
500.00 250.00 M  1.000  0.000  0.000 C
 S
210.00 420.00 M 210.00 420.00 D 670.00 500.00 D S
670.00 500.00 M 670.00 500.00 D 960.00  80.00 D S
960.00  80.00 M 960.00  80.00 D 580.00 210.00 D S
580.00 210.00 M  0.000  1.000  0.000 C
 S
596.40 487.20 M 596.40 487.20 D 913.60 147.20 D S
913.60 147.20 M 913.60 147.20 D 640.80 189.20 D S
640.80 189.20 M  0.000  0.000  1.000 C
 S
862.85 201.60 M 862.85 201.60 D 684.45 182.48 D S
684.45 182.48 M  0.000  0.000  0.000 C
 S
  0.00   0.00 M   0.00   0.00 D 250.00 500.00 D S
250.00 500.00 M 250.00 500.00 D 750.00 500.00 D S
750.00 500.00 M 750.00 500.00 D 1000.00   0.00 D S
1000.00   0.00 M 1000.00   0.00 D 500.00 250.00 D S
500.00 250.00 M  1.000  0.000  0.000 C
 S
212.50 425.00 M 212.50 425.00 D 675.00 500.00 D S
675.00 500.00 M 675.00 500.00 D 962.50  75.00 D S
962.50  75.00 M 962.50  75.00 D 575.00 212.50 D S
575.00 212.50 M  0.000  1.000  0.000 C
 S
605.63 488.75 M 605.62 488.75 D 919.38 138.75 D S
919.38 138.75 M 919.38 138.75 D 633.12 191.88 D S
633.12 191.88 M  0.000  0.000  1.000 C
 S
872.31 191.25 M 872.31 191.25 D 676.06 183.91 D S
676.06 183.91 M  0.000  0.000  0.000 C
 S
  0.00   0.00 M   0.00   0.00 D 250.00 500.00 D S
250.00 500.00 M 250.00 500.00 D 750.00 500.00 D S
750.00 500.00 M 750.00 500.00 D 1000.00   0.00 D S
1000.00   0.00 M 1000.00   0.00 D 500.00 250.00 D S
500.00 250.00 M  1.000  0.000  0.000 C
 S
215.00 430.00 M 215.00 430.00 D 680.00 500.00 D S
680.00 500.00 M 680.00 500.00 D 965.00  70.00 D S
965.00  70.00 M 965.00  70.00 D 570.00 215.00 D S
570.00 215.00 M  0.000  1.000  0.000 C
 S
614.90 490.20 M 614.90 490.20 D 925.10 130.20 D S
925.10 130.20 M 925.10 130.20 D 625.30 194.70 D S
625.30 194.70 M  0.000  0.000  1.000 C
 S
881.67 180.60 M 881.67 180.60 D 667.27 185.67 D S
667.27 185.67 M  0.000  0.000  0.000 C
 S
  0.00   0.00 M   0.00   0.00 D 250.00 500.00 D S
250.00 500.00 M 250.00 500.00 D 750.00 500.00 D S
750.00 500.00 M 750.00 500.00 D 1000.00   0.00 D S
1000.00   0.00 M 1000.00   0.00 D 500.00 250.00 D S
500.00 250.00 M  1.000  0.000  0.000 C
 S
217.50 435.00 M 217.50 435.00 D 685.00 500.00 D S
685.00 500.00 M 685.00 500.00 D 967.50  65.00 D S
967.50  65.00 M 967.50  65.00 D 565.00 217.50 D S
565.00 217.50 M  0.000  1.000  0.000 C
 S
624.23 491.55 M 624.23 491.55 D 930.78 121.55 D S
930.78 121.55 M 930.78 121.55 D 617.33 197.68 D S
617.33 197.68 M  0.000  0.000  1.000 C
 S
890.92 169.65 M 890.92 169.65 D 658.07 187.78 D S
658.07 187.78 M  0.000  0.000  0.000 C
 S
  0.00   0.00 M   0.00   0.00 D 250.00 500.00 D S
250.00 500.00 M 250.00 500.00 D 750.00 500.00 D S
750.00 500.00 M 750.00 500.00 D 1000.00   0.00 D S
1000.00   0.00 M 1000.00   0.00 D 500.00 250.00 D S
500.00 250.00 M  1.000  0.000  0.000 C
 S
220.00 440.00 M 220.00 440.00 D 690.00 500.00 D S
690.00 500.00 M 690.00 500.00 D 970.00  60.00 D S
970.00  60.00 M 970.00  60.00 D 560.00 220.00 D S
560.00 220.00 M  0.000  1.000  0.000 C
 S
633.60 492.80 M 633.60 492.80 D 936.40 112.80 D S
936.40 112.80 M 936.40 112.80 D 609.20 200.80 D S
609.20 200.80 M  0.000  0.000  1.000 C
 S
900.06 158.40 M 900.06 158.40 D 648.46 190.24 D S
648.46 190.24 M  0.000  0.000  0.000 C
 S
  0.00   0.00 M   0.00   0.00 D 250.00 500.00 D S
250.00 500.00 M 250.00 500.00 D 750.00 500.00 D S
750.00 500.00 M 750.00 500.00 D 1000.00   0.00 D S
1000.00   0.00 M 1000.00   0.00 D 500.00 250.00 D S
500.00 250.00 M  1.000  0.000  0.000 C
 S
222.50 445.00 M 222.50 445.00 D 695.00 500.00 D S
695.00 500.00 M 695.00 500.00 D 972.50  55.00 D S
972.50  55.00 M 972.50  55.00 D 555.00 222.50 D S
555.00 222.50 M  0.000  1.000  0.000 C
 S
643.03 493.95 M 643.03 493.95 D 941.98 103.95 D S
941.98 103.95 M 941.98 103.95 D 600.92 204.07 D S
600.92 204.07 M  0.000  0.000  1.000 C
 S
909.09 146.85 M 909.09 146.85 D 638.44 193.06 D S
638.44 193.06 M  0.000  0.000  0.000 C
 S
  0.00   0.00 M   0.00   0.00 D 250.00 500.00 D S
250.00 500.00 M 250.00 500.00 D 750.00 500.00 D S
750.00 500.00 M 750.00 500.00 D 1000.00   0.00 D S
1000.00   0.00 M 1000.00   0.00 D 500.00 250.00 D S
500.00 250.00 M  1.000  0.000  0.000 C
 S
225.00 450.00 M 225.00 450.00 D 700.00 500.00 D S
700.00 500.00 M 700.00 500.00 D 975.00  50.00 D S
975.00  50.00 M 975.00  50.00 D 550.00 225.00 D S
550.00 225.00 M  0.000  1.000  0.000 C
 S
652.50 495.00 M 652.50 495.00 D 947.50  95.00 D S
947.50  95.00 M 947.50  95.00 D 592.50 207.50 D S
592.50 207.50 M  0.000  0.000  1.000 C
 S
918.00 135.00 M 918.00 135.00 D 628.00 196.25 D S
628.00 196.25 M  0.000  0.000  0.000 C
 S
  0.00   0.00 M   0.00   0.00 D 250.00 500.00 D S
250.00 500.00 M 250.00 500.00 D 750.00 500.00 D S
750.00 500.00 M 750.00 500.00 D 1000.00   0.00 D S
1000.00   0.00 M 1000.00   0.00 D 500.00 250.00 D S
500.00 250.00 M  1.000  0.000  0.000 C
 S
227.50 455.00 M 227.50 455.00 D 705.00 500.00 D S
705.00 500.00 M 705.00 500.00 D 977.50  45.00 D S
977.50  45.00 M 977.50  45.00 D 545.00 227.50 D S
545.00 227.50 M  0.000  1.000  0.000 C
 S
662.03 495.95 M 662.03 495.95 D 952.98  85.95 D S
952.98  85.95 M 952.98  85.95 D 583.92 211.07 D S
583.92 211.07 M  0.000  0.000  1.000 C
 S
926.79 122.85 M 926.79 122.85 D 617.14 199.81 D S
617.14 199.81 M  0.000  0.000  0.000 C
 S
  0.00   0.00 M   0.00   0.00 D 250.00 500.00 D S
250.00 500.00 M 250.00 500.00 D 750.00 500.00 D S
750.00 500.00 M 750.00 500.00 D 1000.00   0.00 D S
1000.00   0.00 M 1000.00   0.00 D 500.00 250.00 D S
500.00 250.00 M  1.000  0.000  0.000 C
 S
230.00 460.00 M 230.00 460.00 D 710.00 500.00 D S
710.00 500.00 M 710.00 500.00 D 980.00  40.00 D S
980.00  40.00 M 980.00  40.00 D 540.00 230.00 D S
540.00 230.00 M  0.000  1.000  0.000 C
 S
671.60 496.80 M 671.60 496.80 D 958.40  76.80 D S
958.40  76.80 M 958.40  76.80 D 575.20 214.80 D S
575.20 214.80 M  0.000  0.000  1.000 C
 S
935.46 110.40 M 935.46 110.40 D 605.86 203.76 D S
605.86 203.76 M  0.000  0.000  0.000 C
 S
  0.00   0.00 M   0.00   0.00 D 250.00 500.00 D S
250.00 500.00 M 250.00 500.00 D 750.00 500.00 D S
750.00 500.00 M 750.00 500.00 D 1000.00   0.00 D S
1000.00   0.00 M 1000.00   0.00 D 500.00 250.00 D S
500.00 250.00 M  1.000  0.000  0.000 C
 S
232.50 465.00 M 232.50 465.00 D 715.00 500.00 D S
715.00 500.00 M 715.00 500.00 D 982.50  35.00 D S
982.50  35.00 M 982.50  35.00 D 535.00 232.50 D S
535.00 232.50 M  0.000  1.000  0.000 C
 S
681.23 497.55 M 681.23 497.55 D 963.78  67.55 D S
963.78  67.55 M 963.78  67.55 D 566.33 218.68 D S
566.33 218.68 M  0.000  0.000  1.000 C
 S
944.00  97.65 M 944.00  97.65 D 594.15 208.10 D S
594.15 208.10 M  0.000  0.000  0.000 C
 S
  0.00   0.00 M   0.00   0.00 D 250.00 500.00 D S
250.00 500.00 M 250.00 500.00 D 750.00 500.00 D S
750.00 500.00 M 750.00 500.00 D 1000.00   0.00 D S
1000.00   0.00 M 1000.00   0.00 D 500.00 250.00 D S
500.00 250.00 M  1.000  0.000  0.000 C
 S
235.00 470.00 M 235.00 470.00 D 720.00 500.00 D S
720.00 500.00 M 720.00 500.00 D 985.00  30.00 D S
985.00  30.00 M 985.00  30.00 D 530.00 235.00 D S
530.00 235.00 M  0.000  1.000  0.000 C
 S
690.90 498.20 M 690.90 498.20 D 969.10  58.20 D S
969.10  58.20 M 969.10  58.20 D 557.30 222.70 D S
557.30 222.70 M  0.000  0.000  1.000 C
 S
952.41  84.60 M 952.41  84.60 D 582.01 212.83 D S
582.01 212.83 M  0.000  0.000  0.000 C
 S
  0.00   0.00 M   0.00   0.00 D 250.00 500.00 D S
250.00 500.00 M 250.00 500.00 D 750.00 500.00 D S
750.00 500.00 M 750.00 500.00 D 1000.00   0.00 D S
1000.00   0.00 M 1000.00   0.00 D 500.00 250.00 D S
500.00 250.00 M  1.000  0.000  0.000 C
 S
237.50 475.00 M 237.50 475.00 D 725.00 500.00 D S
725.00 500.00 M 725.00 500.00 D 987.50  25.00 D S
987.50  25.00 M 987.50  25.00 D 525.00 237.50 D S
525.00 237.50 M  0.000  1.000  0.000 C
 S
700.63 498.75 M 700.62 498.75 D 974.38  48.75 D S
974.38  48.75 M 974.38  48.75 D 548.12 226.88 D S
548.12 226.88 M  0.000  0.000  1.000 C
 S
960.69  71.25 M 960.69  71.25 D 569.44 217.97 D S
569.44 217.97 M  0.000  0.000  0.000 C
 S
  0.00   0.00 M   0.00   0.00 D 250.00 500.00 D S
250.00 500.00 M 250.00 500.00 D 750.00 500.00 D S
750.00 500.00 M 750.00 500.00 D 1000.00   0.00 D S
1000.00   0.00 M 1000.00   0.00 D 500.00 250.00 D S
500.00 250.00 M  1.000  0.000  0.000 C
 S
240.00 480.00 M 240.00 480.00 D 730.00 500.00 D S
730.00 500.00 M 730.00 500.00 D 990.00  20.00 D S
990.00  20.00 M 990.00  20.00 D 520.00 240.00 D S
520.00 240.00 M  0.000  1.000  0.000 C
 S
710.40 499.20 M 710.40 499.20 D 979.60  39.20 D S
979.60  39.20 M 979.60  39.20 D 538.80 231.20 D S
538.80 231.20 M  0.000  0.000  1.000 C
 S
968.83  57.60 M 968.83  57.60 D 556.43 223.52 D S
556.43 223.52 M  0.000  0.000  0.000 C
 S
  0.00   0.00 M   0.00   0.00 D 250.00 500.00 D S
250.00 500.00 M 250.00 500.00 D 750.00 500.00 D S
750.00 500.00 M 750.00 500.00 D 1000.00   0.00 D S
1000.00   0.00 M 1000.00   0.00 D 500.00 250.00 D S
500.00 250.00 M  1.000  0.000  0.000 C
 S
242.50 485.00 M 242.50 485.00 D 735.00 500.00 D S
735.00 500.00 M 735.00 500.00 D 992.50  15.00 D S
992.50  15.00 M 992.50  15.00 D 515.00 242.50 D S
515.00 242.50 M  0.000  1.000  0.000 C
 S
720.23 499.55 M 720.23 499.55 D 984.78  29.55 D S
984.78  29.55 M 984.78  29.55 D 529.33 235.68 D S
529.33 235.68 M  0.000  0.000  1.000 C
 S
976.84  43.65 M 976.84  43.65 D 542.99 229.49 D S
542.99 229.49 M  0.000  0.000  0.000 C
 S
  0.00   0.00 M   0.00   0.00 D 250.00 500.00 D S
250.00 500.00 M 250.00 500.00 D 750.00 500.00 D S
750.00 500.00 M 750.00 500.00 D 1000.00   0.00 D S
1000.00   0.00 M 1000.00   0.00 D 500.00 250.00 D S
500.00 250.00 M  1.000  0.000  0.000 C
 S
245.00 490.00 M 245.00 490.00 D 740.00 500.00 D S
740.00 500.00 M 740.00 500.00 D 995.00  10.00 D S
995.00  10.00 M 995.00  10.00 D 510.00 245.00 D S
510.00 245.00 M  0.000  1.000  0.000 C
 S
730.10 499.80 M 730.10 499.80 D 989.90  19.80 D S
989.90  19.80 M 989.90  19.80 D 519.70 240.30 D S
519.70 240.30 M  0.000  0.000  1.000 C
 S
984.70  29.40 M 984.70  29.40 D 529.10 235.89 D S
529.10 235.89 M  0.000  0.000  0.000 C
 S
  0.00   0.00 M   0.00   0.00 D 250.00 500.00 D S
250.00 500.00 M 250.00 500.00 D 750.00 500.00 D S
750.00 500.00 M 750.00 500.00 D 1000.00   0.00 D S
1000.00   0.00 M 1000.00   0.00 D 500.00 250.00 D S
500.00 250.00 M  1.000  0.000  0.000 C
 S
247.50 495.00 M 247.50 495.00 D 745.00 500.00 D S
745.00 500.00 M 745.00 500.00 D 997.50   5.00 D S
997.50   5.00 M 997.50   5.00 D 505.00 247.50 D S
505.00 247.50 M  0.000  1.000  0.000 C
 S
740.03 499.95 M 740.03 499.95 D 994.98   9.95 D S
994.98   9.95 M 994.98   9.95 D 509.93 245.07 D S
509.93 245.07 M  0.000  0.000  1.000 C
 S
992.43  14.85 M 992.43  14.85 D 514.78 242.72 D S
514.78 242.72 M  0.000  0.000  0.000 C
 S
  0.00   0.00 M   0.00   0.00 D 250.00 500.00 D S
250.00 500.00 M 250.00 500.00 D 750.00 500.00 D S
750.00 500.00 M 750.00 500.00 D 1000.00   0.00 D S
1000.00   0.00 M 1000.00   0.00 D 500.00 250.00 D S
500.00 250.00 M  1.000  0.000  0.000 C
 S
250.00 500.00 M 250.00 500.00 D 750.00 500.00 D S
750.00 500.00 M 750.00 500.00 D 1000.00   0.00 D S
1000.00   0.00 M 1000.00   0.00 D 500.00 250.00 D S
500.00 250.00 M  0.000  1.000  0.000 C
 S
750.00 500.00 M 750.00 500.00 D 1000.00   0.00 D S
1000.00   0.00 M 1000.00   0.00 D 500.00 250.00 D S
500.00 250.00 M  0.000  0.000  1.000 C
 S
1000.00   0.00 M 1000.00   0.00 D 500.00 250.00 D S
500.00 250.00 M  1.000  0.000  0.000 C
 S
  0.00   0.00 M   0.00   0.00 D  10.15  19.70 D  20.58  38.80 D  31.30  57.30 D
 42.27  75.20 D  53.50  92.51 D  64.97 109.22 D  76.66 125.33 D
 88.58 140.85 D 100.69 155.78 D 113.00 170.12 D 125.49 183.88 D
138.14 197.06 D 150.96 209.66 D 163.91 221.68 D 177.00 233.13 D
190.21 244.02 D 203.52 254.34 D 216.94 264.11 D 230.43 273.33 D
244.00 282.00 D 257.63 290.13 D 271.30 297.73 D 285.02 304.80 D
298.75 311.35 D 312.50 317.38 D 326.25 322.91 D 339.98 327.94 D
353.70 332.48 D 367.37 336.54 D 381.00 340.12 D 394.57 343.24 D
408.06 345.91 D 421.48 348.12 D 434.79 349.90 D 448.00 351.26 D
461.09 352.20 D 474.04 352.73 D 486.86 352.86 D 499.51 352.62 D
512.00 352.00 D 524.31 351.02 D 536.42 349.70 D 548.34 348.04 D
560.03 346.05 D 571.50 343.76 D 582.73 341.17 D 593.70 338.30 D
604.42 335.16 D 614.85 331.76 D 625.00 328.12 D 634.85 324.26 D
644.38 320.20 D 653.60 315.93 D 662.47 311.49 D 671.00 306.88 D
679.17 302.13 D 686.96 297.25 D 694.38 292.26 D 701.39 287.17 D
708.00 282.00 D 714.19 276.77 D 719.94 271.50 D 725.26 266.21 D
730.11 260.92 D 734.50 255.63 D 738.41 250.38 D 741.82 245.19 D
744.74 240.07 D 747.13 235.04 D 749.00 230.12 D 750.33 225.35 D
751.10 220.72 D 751.32 216.28 D 750.95 212.03 D 750.00 208.01 D
748.45 204.23 D 746.28 200.71 D 743.50 197.49 D 740.07 194.58 D
736.00 192.00 D 731.27 189.78 D 725.86 187.95 D 719.78 186.53 D
712.99 185.54 D 705.50 185.01 D 697.29 184.96 D 688.34 185.42 D
678.66 186.42 D 668.21 187.98 D 657.00 190.12 D 645.01 192.89 D
632.22 196.29 D 618.64 200.37 D 604.23 205.14 D 589.00 210.63 D
572.93 216.88 D 556.00 223.92 D 538.22 231.76 D 519.55 240.44 D
500.00 250.00 D S
eop
@end
%%PageTrailer
%%Trailer
%%EOF
