%!PS-Adobe-2.0 EPSF-2.0
%%Title: /home/gijs/.chiplotle/output/20140705_093106.eps
%%Creator: hp2xx 3.4.4 (c) 1991-1994 by H. Werntges, 1999-2003 by M. Kroeker
%%CreationDate: Sat Jul  5 09:31:06 2014
%%Pages: 1
%%BoundingBox: 0 0 1418 1418
%%EndComments

%%BeginProcSet:
/PSSave save def
/PSDict 200 dict def
PSDict begin
/@restore /restore load def
/restore
   {vmstatus pop
    dup @VMused lt {pop @VMused} if
    exch pop exch @restore /@VMused exch def
   } def
/@pri
   {
    ( ) print
    (                                       ) cvs print
   } def
/@start
   {
    vmstatus pop /@VMused exch def pop
   } def
/@end
   {(VM Used: ) print @VMused @pri
    (. Unused: ) print vmstatus @VMused sub @pri pop pop
    (\n) print flush
    end
    PSSave restore
   } def
/bop
   {
    /SaveImage save def
   } def
/eop
   {
    showpage
    SaveImage restore
   } def
/@line
   {
%%    1 setlinejoin      %% now set from LA command
%%    1 setmiterlimit    %% now set from LA command
   } def
/@SetPlot
   {
    2.834646 2.834646 scale
      0.050   0.050 translate
     0.100 setlinewidth
   } def
/C {setrgbcolor} def
/D {lineto} def
/M {moveto} def
/S {stroke} def
/W {setlinewidth} def
/Z {stroke newpath} def
end
%%EndProcSet

%%BeginSetup
/#copies 1 def
%%EndSetup
%%Page: 1 1
%%BeginPageSetup
PSDict begin
@start
@line
@SetPlot

bop
%%EndPageSetup
  0.100 W
 S
  0.00 250.00 M  0.100 W
 S
  0.00 250.00 M 1 setlinecap
 S
  0.00 250.00 M 1 setlinejoin
 S
  0.00 250.00 M  1.000  0.000  0.000 C
 S
  0.00 250.00 M   0.00 250.00 D 250.00 500.00 D S
250.00 500.00 M 250.00 500.00 D 250.00   0.00 D S
250.00   0.00 M 250.00   0.00 D 500.00 250.00 D S
500.00 250.00 M  0.000  1.000  0.000 C
 S
  0.00 250.00 M   0.00 250.00 D 250.00 500.00 D S
250.00 500.00 M 250.00 500.00 D 250.00   0.00 D S
250.00   0.00 M  0.000  0.000  1.000 C
 S
  0.00 250.00 M   0.00 250.00 D 250.00 500.00 D S
250.00 500.00 M  1.000  0.000  0.000 C
 S
  0.00 250.00 M   0.00 250.00 D 250.00 500.00 D S
250.00 500.00 M 250.00 500.00 D 250.00   0.00 D S
250.00   0.00 M 250.00   0.00 D 500.00 250.00 D S
500.00 250.00 M  0.000  1.000  0.000 C
 S
 25.00 275.00 M  25.00 275.00 D 250.00 450.00 D S
250.00 450.00 M 250.00 450.00 D 275.00  25.00 D S
275.00  25.00 M  0.000  0.000  1.000 C
 S
 47.50 292.50 M  47.50 292.50 D 252.50 407.50 D S
252.50 407.50 M  1.000  0.000  0.000 C
 S
  0.00 250.00 M   0.00 250.00 D 250.00 500.00 D S
250.00 500.00 M 250.00 500.00 D 250.00   0.00 D S
250.00   0.00 M 250.00   0.00 D 500.00 250.00 D S
500.00 250.00 M  0.000  1.000  0.000 C
 S
 50.00 300.00 M  50.00 300.00 D 250.00 400.00 D S
250.00 400.00 M 250.00 400.00 D 300.00  50.00 D S
300.00  50.00 M  0.000  0.000  1.000 C
 S
 90.00 320.00 M  90.00 320.00 D 260.00 330.00 D S
260.00 330.00 M  1.000  0.000  0.000 C
 S
  0.00 250.00 M   0.00 250.00 D 250.00 500.00 D S
250.00 500.00 M 250.00 500.00 D 250.00   0.00 D S
250.00   0.00 M 250.00   0.00 D 500.00 250.00 D S
500.00 250.00 M  0.000  1.000  0.000 C
 S
 75.00 325.00 M  75.00 325.00 D 250.00 350.00 D S
250.00 350.00 M 250.00 350.00 D 325.00  75.00 D S
325.00  75.00 M  0.000  0.000  1.000 C
 S
127.50 332.50 M 127.50 332.50 D 272.50 267.50 D S
272.50 267.50 M  1.000  0.000  0.000 C
 S
  0.00 250.00 M   0.00 250.00 D 250.00 500.00 D S
250.00 500.00 M 250.00 500.00 D 250.00   0.00 D S
250.00   0.00 M 250.00   0.00 D 500.00 250.00 D S
500.00 250.00 M  0.000  1.000  0.000 C
 S
100.00 350.00 M 100.00 350.00 D 250.00 300.00 D S
250.00 300.00 M 250.00 300.00 D 350.00 100.00 D S
350.00 100.00 M  0.000  0.000  1.000 C
 S
160.00 330.00 M 160.00 330.00 D 290.00 220.00 D S
290.00 220.00 M  1.000  0.000  0.000 C
 S
  0.00 250.00 M   0.00 250.00 D 250.00 500.00 D S
250.00 500.00 M 250.00 500.00 D 250.00   0.00 D S
250.00   0.00 M 250.00   0.00 D 500.00 250.00 D S
500.00 250.00 M  0.000  1.000  0.000 C
 S
125.00 375.00 M 125.00 375.00 D 250.00 250.00 D S
250.00 250.00 M 250.00 250.00 D 375.00 125.00 D S
375.00 125.00 M  0.000  0.000  1.000 C
 S
187.50 312.50 M 187.50 312.50 D 312.50 187.50 D S
312.50 187.50 M  1.000  0.000  0.000 C
 S
  0.00 250.00 M   0.00 250.00 D 250.00 500.00 D S
250.00 500.00 M 250.00 500.00 D 250.00   0.00 D S
250.00   0.00 M 250.00   0.00 D 500.00 250.00 D S
500.00 250.00 M  0.000  1.000  0.000 C
 S
150.00 400.00 M 150.00 400.00 D 250.00 200.00 D S
250.00 200.00 M 250.00 200.00 D 400.00 150.00 D S
400.00 150.00 M  0.000  0.000  1.000 C
 S
210.00 280.00 M 210.00 280.00 D 340.00 170.00 D S
340.00 170.00 M  1.000  0.000  0.000 C
 S
  0.00 250.00 M   0.00 250.00 D 250.00 500.00 D S
250.00 500.00 M 250.00 500.00 D 250.00   0.00 D S
250.00   0.00 M 250.00   0.00 D 500.00 250.00 D S
500.00 250.00 M  0.000  1.000  0.000 C
 S
175.00 425.00 M 175.00 425.00 D 250.00 150.00 D S
250.00 150.00 M 250.00 150.00 D 425.00 175.00 D S
425.00 175.00 M  0.000  0.000  1.000 C
 S
227.50 232.50 M 227.50 232.50 D 372.50 167.50 D S
372.50 167.50 M  1.000  0.000  0.000 C
 S
  0.00 250.00 M   0.00 250.00 D 250.00 500.00 D S
250.00 500.00 M 250.00 500.00 D 250.00   0.00 D S
250.00   0.00 M 250.00   0.00 D 500.00 250.00 D S
500.00 250.00 M  0.000  1.000  0.000 C
 S
200.00 450.00 M 200.00 450.00 D 250.00 100.00 D S
250.00 100.00 M 250.00 100.00 D 450.00 200.00 D S
450.00 200.00 M  0.000  0.000  1.000 C
 S
240.00 170.00 M 240.00 170.00 D 410.00 180.00 D S
410.00 180.00 M  1.000  0.000  0.000 C
 S
  0.00 250.00 M   0.00 250.00 D 250.00 500.00 D S
250.00 500.00 M 250.00 500.00 D 250.00   0.00 D S
250.00   0.00 M 250.00   0.00 D 500.00 250.00 D S
500.00 250.00 M  0.000  1.000  0.000 C
 S
225.00 475.00 M 225.00 475.00 D 250.00  50.00 D S
250.00  50.00 M 250.00  50.00 D 475.00 225.00 D S
475.00 225.00 M  0.000  0.000  1.000 C
 S
247.50  92.50 M 247.50  92.50 D 452.50 207.50 D S
452.50 207.50 M  1.000  0.000  0.000 C
 S
  0.00 250.00 M   0.00 250.00 D 250.00 500.00 D S
250.00 500.00 M 250.00 500.00 D 250.00   0.00 D S
250.00   0.00 M 250.00   0.00 D 500.00 250.00 D S
500.00 250.00 M  0.000  1.000  0.000 C
 S
250.00 500.00 M 250.00 500.00 D 250.00   0.00 D S
250.00   0.00 M 250.00   0.00 D 500.00 250.00 D S
500.00 250.00 M  0.000  0.000  1.000 C
 S
250.00   0.00 M 250.00   0.00 D 500.00 250.00 D S
500.00 250.00 M  0.000  0.000  0.000 C
 S
  0.00 250.00 M   0.00 250.00 D  68.00 304.00 D 124.00 322.00 D 171.00 313.00 D
212.00 286.00 D 250.00 250.00 D 288.00 214.00 D 329.00 187.00 D
376.00 178.00 D 432.00 196.00 D 500.00 250.00 D S
eop
@end
%%PageTrailer
%%Trailer
%%EOF
